date,amount,duration,payments,status,frequency,A2,A3,A4,A5,A6,A7,A8,A9,A10,A11,A12,A13,A14,A15,A16
1993-02-26,80952,24,3373.00,1,"POPLATEK MESICNE","Hl.m. Praha",Prague,1204953,0,0,0,1,1,100.0,12541,0.2,0.43,167,85677,99107
1995-04-07,30276,12,2523.00,0,"POPLATEK MESICNE",Tabor,"south Bohemia",103347,87,16,7,1,7,67.0,9104,1.5,2.07,123,2299,2354
1996-07-28,30276,12,2523.00,1,"POPLATEK MESICNE","Frydek - Mistek","north Moravia",228848,15,40,18,2,6,57.2,9893,4.0,4.72,96,5623,5887
1997-08-18,318480,60,5308.00,0,"POPLATEK MESICNE",Strakonice,"south Bohemia",70646,94,14,3,1,4,58.4,8547,2.6,3.64,120,1563,1542
1997-08-08,110736,48,2307.00,1,"POPLATEK TYDNE",Prachatice,"south Bohemia",51428,50,11,3,1,4,52.7,8402,3.1,3.98,120,999,1099
1994-10-19,165960,24,6915.00,1,"POPLATEK MESICNE","Jindrichuv Hradec","south Bohemia",93931,74,21,10,1,8,56.9,8427,1.1,1.54,107,1874,1913
1996-05-05,102876,12,8573.00,1,"POPLATEK MESICNE","Ostrava - mesto","north Moravia",323870,0,0,0,1,1,100.0,10673,4.7,5.44,100,18782,18347
1996-03-10,265320,36,7370.00,0,"POPLATEK MESICNE",Chrudim,"east Bohemia",105606,77,26,7,2,7,53.0,8254,2.7,3.76,97,2166,2325
1997-07-10,352704,48,7348.00,1,"POPLATEK MESICNE",Tabor,"south Bohemia",103347,87,16,7,1,7,67.0,9104,1.5,2.07,123,2299,2354
1996-07-17,162576,36,4516.00,1,"POPLATEK MESICNE",Liberec,"north Bohemia",159617,29,19,8,1,9,85.2,9198,3.3,4.28,131,5796,6132
1996-05-11,88440,12,7370.00,1,"POPLATEK PO OBRATU",Teplice,"north Bohemia",128118,9,16,6,3,8,85.3,9317,6.4,7.07,97,6949,6872
1993-11-26,104808,12,8734.00,1,"POPLATEK MESICNE","Zdar nad Sazavou","south Moravia",125832,151,41,2,3,5,48.3,8512,3.5,4.12,102,2247,2103
1996-08-12,27456,12,2288.00,1,"POPLATEK TYDNE","Novy Jicin","north Moravia",161227,5,35,11,4,10,69.7,8678,5.9,5.57,102,4980,4595
1997-02-23,109344,12,9112.00,1,"POPLATEK MESICNE",Karvina,"north Moravia",285387,0,2,8,5,7,89.9,10177,6.6,7.75,81,9878,10108
1997-12-08,160920,36,4470.00,1,"POPLATEK MESICNE",Louny,"north Bohemia",85852,41,23,4,2,4,59.8,8965,7.0,8.23,104,2653,2822
1993-12-02,123696,48,2577.00,1,"POPLATEK MESICNE",Breclav,"south Moravia",124605,11,42,14,1,8,46.0,8772,4.6,4.98,126,2854,3158
1996-07-25,112752,36,3132.00,1,"POPLATEK MESICNE","Novy Jicin","north Moravia",161227,5,35,11,4,10,69.7,8678,5.9,5.57,102,4980,4595
1997-04-25,91248,48,1901.00,1,"POPLATEK MESICNE","Ceske Budejovice","south Bohemia",177686,69,27,10,1,9,74.8,10045,1.4,1.71,135,6604,6295
1996-01-26,66840,24,2785.00,1,"POPLATEK PO OBRATU","Cesky Krumlov","south Bohemia",58796,22,16,7,1,5,51.9,9045,3.1,3.60,124,1845,1879
1995-10-17,369000,60,6150.00,1,"POPLATEK TYDNE",Pardubice,"east Bohemia",162580,83,26,5,1,6,72.8,9538,1.5,1.81,111,6079,5410
1996-11-24,331584,48,6908.00,1,"POPLATEK MESICNE","Havlickuv Brod","east Bohemia",95907,87,25,5,2,7,59.1,8388,2.4,2.94,87,1658,1668
1996-09-11,468060,60,7801.00,1,"POPLATEK TYDNE",Nachod,"east Bohemia",112709,48,20,7,3,10,73.5,8369,1.7,2.31,117,2854,2618
1993-12-01,100980,60,1683.00,1,"POPLATEK MESICNE","Brno - mesto","south Moravia",387570,0,0,0,1,1,100.0,9897,1.6,1.96,140,18721,18696
1993-12-13,187224,24,7801.00,0,"POPLATEK MESICNE",Znojmo,"south Moravia",114200,101,41,4,1,4,43.7,8403,5.7,5.72,105,2157,2718
1997-06-08,42816,12,3568.00,1,"POPLATEK MESICNE",Olomouc,"north Moravia",226122,32,50,7,4,4,62.6,8994,3.8,4.79,110,9672,9208
1996-07-22,230400,60,3840.00,1,"POPLATEK MESICNE","Frydek - Mistek","north Moravia",228848,15,40,18,2,6,57.2,9893,4.0,4.72,96,5623,5887
1993-11-29,252060,60,4201.00,0,"POPLATEK MESICNE","Hl.m. Praha",Prague,1204953,0,0,0,1,1,100.0,12541,0.2,0.43,167,85677,99107
1996-12-22,84288,48,1756.00,1,"POPLATEK MESICNE",Rokycany,"west Bohemia",45714,52,10,5,1,6,55.6,8843,2.8,3.60,113,818,888
1997-03-30,357840,48,7455.00,0,"POPLATEK MESICNE","Brno - mesto","south Moravia",387570,0,0,0,1,1,100.0,9897,1.6,1.96,140,18721,18696
1996-10-11,196800,24,8200.00,0,"POPLATEK MESICNE","Mlada Boleslav","central Bohemia",112065,95,19,7,1,8,69.4,11277,1.2,1.44,127,5179,4987
1995-10-21,262980,60,4383.00,1,"POPLATEK MESICNE",Rakovnik,"central Bohemia",53921,61,22,1,1,2,41.3,8598,2.7,3.26,123,1597,1875
1996-03-20,210384,48,4383.00,1,"POPLATEK MESICNE",Karvina,"north Moravia",285387,0,2,8,5,7,89.9,10177,6.6,7.75,81,9878,10108
1995-05-15,91152,24,3798.00,1,"POPLATEK MESICNE","Ceska Lipa","north Bohemia",105058,32,19,7,2,10,81.0,9272,2.8,3.22,118,4340,4505
1996-03-15,12540,12,1045.00,1,"POPLATEK MESICNE","Plzen - jih","west Bohemia",67298,71,19,10,0,7,43.8,8561,0.6,1.29,110,1029,1127
1995-08-03,102240,60,1704.00,1,"POPLATEK MESICNE",Jihlava,"south Moravia",109164,98,16,6,1,4,63.6,8757,3.3,3.95,96,2212,2471
1996-03-03,76944,12,6412.00,1,"POPLATEK MESICNE","Hl.m. Praha",Prague,1204953,0,0,0,1,1,100.0,12541,0.2,0.43,167,85677,99107
1997-08-09,156096,36,4336.00,1,"POPLATEK TYDNE",Tabor,"south Bohemia",103347,87,16,7,1,7,67.0,9104,1.5,2.07,123,2299,2354
1995-02-06,73056,48,1522.00,1,"POPLATEK MESICNE",Most,"north Bohemia",119895,17,4,3,2,4,89.9,10446,7.3,9.40,90,4947,4743
1993-05-11,208128,48,4336.00,0,"POPLATEK MESICNE","Brno - mesto","south Moravia",387570,0,0,0,1,1,100.0,9897,1.6,1.96,140,18721,18696
1995-06-13,215616,48,4492.00,0,"POPLATEK MESICNE",Jesenik,"north Moravia",42821,4,13,5,1,3,48.4,8173,NULL,7.01,124,NULL,1358
1993-02-10,24312,12,2026.00,1,"POPLATEK MESICNE","Jindrichuv Hradec","south Bohemia",93931,74,21,10,1,8,56.9,8427,1.1,1.54,107,1874,1913
1993-08-05,48624,24,2026.00,1,"POPLATEK MESICNE","Usti nad Orlici","east Bohemia",139012,59,41,8,3,10,61.9,8363,2.5,3.49,108,2564,2799
1994-03-18,538500,60,8975.00,1,"POPLATEK MESICNE",Kolin,"central Bohemia",95616,65,30,4,1,6,51.4,9307,3.8,4.43,118,2616,3040
1996-03-06,53076,12,4423.00,1,"POPLATEK MESICNE",Prachatice,"south Bohemia",51428,50,11,3,1,4,52.7,8402,3.1,3.98,120,999,1099
1996-03-09,187104,24,7796.00,1,"POPLATEK MESICNE",Olomouc,"north Moravia",226122,32,50,7,4,4,62.6,8994,3.8,4.79,110,9672,9208
1993-09-21,87216,48,1817.00,1,"POPLATEK MESICNE","Uherske Hradiste","south Moravia",145688,22,41,13,2,5,40.7,8544,1.2,1.86,109,2719,2906
1997-04-26,178500,60,2975.00,1,"POPLATEK MESICNE",Opava,"north Moravia",182027,17,49,12,2,7,56.4,8746,3.3,3.74,90,4355,4433
1995-01-18,309552,48,6449.00,1,"POPLATEK MESICNE",Olomouc,"north Moravia",226122,32,50,7,4,4,62.6,8994,3.8,4.79,110,9672,9208
1997-12-13,22260,60,371.00,1,"POPLATEK MESICNE",Karvina,"north Moravia",285387,0,2,8,5,7,89.9,10177,6.6,7.75,81,9878,10108
1994-11-15,284280,60,4738.00,1,"POPLATEK MESICNE",Litomerice,"north Bohemia",114006,71,26,6,2,9,62.3,9065,4.4,5.39,123,4147,4166
1994-11-02,189060,60,3151.00,1,"POPLATEK PO OBRATU",Kladno,"central Bohemia",149893,63,29,6,2,6,67.4,9753,4.6,5.05,109,5244,5892
1996-11-14,108720,60,1812.00,1,"POPLATEK MESICNE","Kutna Hora","central Bohemia",77963,60,23,4,2,4,51.5,8546,2.9,4.02,126,2640,3120
1996-07-02,188532,36,5237.00,1,"POPLATEK MESICNE",Karvina,"north Moravia",285387,0,2,8,5,7,89.9,10177,6.6,7.75,81,9878,10108
1994-12-17,204000,60,3400.00,1,"POPLATEK MESICNE",Jicin,"east Bohemia",77917,85,19,6,1,5,53.5,8390,2.2,2.89,132,2080,2122
1994-07-09,98184,24,4091.00,1,"POPLATEK MESICNE",Znojmo,"south Moravia",114200,101,41,4,1,4,43.7,8403,5.7,5.72,105,2157,2718
1997-02-15,253200,60,4220.00,1,"POPLATEK MESICNE","Usti nad Orlici","east Bohemia",139012,59,41,8,3,10,61.9,8363,2.5,3.49,108,2564,2799
1993-05-10,253200,60,4220.00,1,"POPLATEK TYDNE","Frydek - Mistek","north Moravia",228848,15,40,18,2,6,57.2,9893,4.0,4.72,96,5623,5887
1996-12-06,50976,36,1416.00,1,"POPLATEK MESICNE",Jicin,"east Bohemia",77917,85,19,6,1,5,53.5,8390,2.2,2.89,132,2080,2122
1996-01-14,385104,48,8023.00,1,"POPLATEK MESICNE","Brno - mesto","south Moravia",387570,0,0,0,1,1,100.0,9897,1.6,1.96,140,18721,18696
1993-08-29,192552,24,8023.00,0,"POPLATEK TYDNE",Strakonice,"south Bohemia",70646,94,14,3,1,4,58.4,8547,2.6,3.64,120,1563,1542
1993-04-21,149040,48,3105.00,1,"POPLATEK MESICNE","Praha - zapad","central Bohemia",75637,35,36,9,0,7,36.5,9622,0.4,0.59,154,3475,3529
1996-11-24,128544,24,5356.00,1,"POPLATEK PO OBRATU","Ostrava - mesto","north Moravia",323870,0,0,0,1,1,100.0,10673,4.7,5.44,100,18782,18347
1996-05-08,35904,48,748.00,1,"POPLATEK MESICNE","Frydek - Mistek","north Moravia",228848,15,40,18,2,6,57.2,9893,4.0,4.72,96,5623,5887
1993-06-08,99696,48,2077.00,0,"POPLATEK MESICNE",Klatovy,"west Bohemia",88757,60,33,3,2,10,61.7,8554,2.4,2.68,113,1822,2218
1996-03-28,182640,48,3805.00,1,"POPLATEK MESICNE","Uherske Hradiste","south Moravia",145688,22,41,13,2,5,40.7,8544,1.2,1.86,109,2719,2906
1995-07-26,148140,36,4115.00,1,"POPLATEK TYDNE",Rakovnik,"central Bohemia",53921,61,22,1,1,2,41.3,8598,2.7,3.26,123,1597,1875
1994-04-21,71064,36,1974.00,1,"POPLATEK MESICNE",Louny,"north Bohemia",85852,41,23,4,2,4,59.8,8965,7.0,8.23,104,2653,2822
1996-06-07,74772,36,2077.00,1,"POPLATEK PO OBRATU","Brno - venkov","south Moravia",157042,49,70,18,0,9,33.9,8743,1.8,2.43,111,3659,3894
1997-07-02,52512,12,4376.00,1,"POPLATEK MESICNE","Brno - venkov","south Moravia",157042,49,70,18,0,9,33.9,8743,1.8,2.43,111,3659,3894
1997-12-22,185544,36,5154.00,1,"POPLATEK MESICNE",Breclav,"south Moravia",124605,11,42,14,1,8,46.0,8772,4.6,4.98,126,2854,3158
1996-09-16,23520,12,1960.00,1,"POPLATEK MESICNE",Blansko,"south Moravia",107911,88,33,6,2,7,50.9,8240,2.5,3.56,99,1850,1903
1996-09-26,389136,48,8107.00,1,"POPLATEK MESICNE",Blansko,"south Moravia",107911,88,33,6,2,7,50.9,8240,2.5,3.56,99,1850,1903
1994-04-27,45336,24,1889.00,1,"POPLATEK MESICNE",Prachatice,"south Bohemia",51428,50,11,3,1,4,52.7,8402,3.1,3.98,120,999,1099
1997-08-05,125472,24,5228.00,1,"POPLATEK MESICNE",Chomutov,"north Bohemia",125236,28,11,1,4,5,87.7,9675,6.4,7.68,100,5323,5190
1997-04-11,125472,24,5228.00,1,"POPLATEK PO OBRATU",Prachatice,"south Bohemia",51428,50,11,3,1,4,52.7,8402,3.1,3.98,120,999,1099
1997-02-20,100080,48,2085.00,1,"POPLATEK MESICNE",Znojmo,"south Moravia",114200,101,41,4,1,4,43.7,8403,5.7,5.72,105,2157,2718
1996-07-03,123300,36,3425.00,1,"POPLATEK TYDNE","Usti nad Labem","north Bohemia",118650,8,8,5,1,3,85.6,9832,3.3,4.48,114,6445,5471
1997-02-07,165780,60,2763.00,1,"POPLATEK TYDNE","Uherske Hradiste","south Moravia",145688,22,41,13,2,5,40.7,8544,1.2,1.86,109,2719,2906
1993-11-17,164052,36,4557.00,0,"POPLATEK PO OBRATU",Tachov,"west Bohemia",51313,34,12,3,1,4,59.2,8930,3.5,4.20,108,1328,1452
1996-06-08,191088,48,3981.00,1,"POPLATEK MESICNE",Svitavy,"east Bohemia",102609,75,33,2,3,6,52.0,8187,4.8,5.45,94,2123,2134
1996-01-08,194256,24,8094.00,1,"POPLATEK MESICNE",Jesenik,"north Moravia",42821,4,13,5,1,3,48.4,8173,NULL,7.01,124,NULL,1358
1994-11-17,388512,48,8094.00,0,"POPLATEK PO OBRATU",Jesenik,"north Moravia",42821,4,13,5,1,3,48.4,8173,NULL,7.01,124,NULL,1358
1993-05-09,78936,12,6578.00,1,"POPLATEK MESICNE","Hl.m. Praha",Prague,1204953,0,0,0,1,1,100.0,12541,0.2,0.43,167,85677,99107
1996-11-12,64224,24,2676.00,1,"POPLATEK TYDNE","Kutna Hora","central Bohemia",77963,60,23,4,2,4,51.5,8546,2.9,4.02,126,2640,3120
1997-02-01,189792,48,3954.00,1,"POPLATEK MESICNE",Pardubice,"east Bohemia",162580,83,26,5,1,6,72.8,9538,1.5,1.81,111,6079,5410
1996-03-14,141948,36,3943.00,1,"POPLATEK MESICNE","Frydek - Mistek","north Moravia",228848,15,40,18,2,6,57.2,9893,4.0,4.72,96,5623,5887
1997-09-23,172272,24,7178.00,1,"POPLATEK MESICNE","Novy Jicin","north Moravia",161227,5,35,11,4,10,69.7,8678,5.9,5.57,102,4980,4595
1993-12-11,248148,36,6893.00,1,"POPLATEK MESICNE","Plzen - sever","west Bohemia",72541,66,26,10,0,8,36.9,8594,1.6,2.01,112,1580,1525
1994-09-03,30060,60,501.00,1,"POPLATEK MESICNE","Plzen - sever","west Bohemia",72541,66,26,10,0,8,36.9,8594,1.6,2.01,112,1580,1525
1995-02-20,202788,36,5633.00,1,"POPLATEK TYDNE",Tachov,"west Bohemia",51313,34,12,3,1,4,59.2,8930,3.5,4.20,108,1328,1452
1997-07-27,43200,24,1800.00,1,"POPLATEK MESICNE",Liberec,"north Bohemia",159617,29,19,8,1,9,85.2,9198,3.3,4.28,131,5796,6132
1993-03-22,96396,12,8033.00,0,"POPLATEK TYDNE",Sokolov,"west Bohemia",94812,15,13,8,2,10,81.8,9650,3.3,3.67,100,2985,2804
1993-02-13,165960,36,4610.00,1,"POPLATEK MESICNE",Nachod,"east Bohemia",112709,48,20,7,3,10,73.5,8369,1.7,2.31,117,2854,2618
1997-05-16,385584,48,8033.00,1,"POPLATEK MESICNE","Plzen - sever","west Bohemia",72541,66,26,10,0,8,36.9,8594,1.6,2.01,112,1580,1525
1993-09-22,239460,60,3991.00,1,"POPLATEK MESICNE",Teplice,"north Bohemia",128118,9,16,6,3,8,85.3,9317,6.4,7.07,97,6949,6872
1996-10-21,143676,36,3991.00,1,"POPLATEK TYDNE","Brno - venkov","south Moravia",157042,49,70,18,0,9,33.9,8743,1.8,2.43,111,3659,3894
1993-01-30,105804,36,2939.00,1,"POPLATEK MESICNE",Pribram,"central Bohemia",107870,84,29,6,1,6,58.0,8754,3.8,4.31,137,3804,3868
1995-04-15,396120,60,6602.00,1,"POPLATEK TYDNE",Prachatice,"south Bohemia",51428,50,11,3,1,4,52.7,8402,3.1,3.98,120,999,1099
1996-06-14,37944,36,1054.00,1,"POPLATEK MESICNE","Hl.m. Praha",Prague,1204953,0,0,0,1,1,100.0,12541,0.2,0.43,167,85677,99107
1997-09-20,209040,24,8710.00,1,"POPLATEK MESICNE","Hl.m. Praha",Prague,1204953,0,0,0,1,1,100.0,12541,0.2,0.43,167,85677,99107
1996-03-05,162468,36,4513.00,1,"POPLATEK MESICNE","Ceska Lipa","north Bohemia",105058,32,19,7,2,10,81.0,9272,2.8,3.22,118,4340,4505
1996-10-21,57360,12,4780.00,0,"POPLATEK MESICNE","Kutna Hora","central Bohemia",77963,60,23,4,2,4,51.5,8546,2.9,4.02,126,2640,3120
1996-08-01,44952,24,1873.00,1,"POPLATEK MESICNE","Hl.m. Praha",Prague,1204953,0,0,0,1,1,100.0,12541,0.2,0.43,167,85677,99107
1997-03-02,55632,24,2318.00,1,"POPLATEK MESICNE",Karvina,"north Moravia",285387,0,2,8,5,7,89.9,10177,6.6,7.75,81,9878,10108
1995-02-13,249312,48,5194.00,1,"POPLATEK TYDNE","Plzen - mesto","west Bohemia",170449,0,0,0,1,1,100.0,10787,2.6,3.09,131,6041,6261
1993-06-11,205200,36,5700.00,1,"POPLATEK TYDNE",Hodonin,"south Moravia",161954,21,37,20,3,8,48.0,8720,3.7,4.50,116,3729,3651
1994-10-30,68400,12,5700.00,0,"POPLATEK MESICNE","Frydek - Mistek","north Moravia",228848,15,40,18,2,6,57.2,9893,4.0,4.72,96,5623,5887
1997-08-06,290820,60,4847.00,1,"POPLATEK MESICNE",Kolin,"central Bohemia",95616,65,30,4,1,6,51.4,9307,3.8,4.43,118,2616,3040
1995-06-04,38520,12,3210.00,1,"POPLATEK MESICNE","Havlickuv Brod","east Bohemia",95907,87,25,5,2,7,59.1,8388,2.4,2.94,87,1658,1668
1996-05-10,176328,36,4898.00,1,"POPLATEK MESICNE",Blansko,"south Moravia",107911,88,33,6,2,7,50.9,8240,2.5,3.56,99,1850,1903
1995-11-08,293880,60,4898.00,0,"POPLATEK TYDNE",Zlin,"south Moravia",197099,29,41,10,2,10,74.7,9624,1.6,2.31,145,4484,4265
1997-04-17,271260,60,4521.00,1,"POPLATEK MESICNE",Litomerice,"north Bohemia",114006,71,26,6,2,9,62.3,9065,4.4,5.39,123,4147,4166
1996-03-06,86184,12,7182.00,1,"POPLATEK MESICNE",Karvina,"north Moravia",285387,0,2,8,5,7,89.9,10177,6.6,7.75,81,9878,10108
1996-12-30,83628,36,2323.00,1,"POPLATEK MESICNE","Brno - mesto","south Moravia",387570,0,0,0,1,1,100.0,9897,1.6,1.96,140,18721,18696
1997-08-14,44640,24,1860.00,1,"POPLATEK MESICNE",Kromeriz,"south Moravia",108871,41,29,7,2,6,62.1,8444,3.2,3.47,106,2595,2305
1997-04-27,214596,36,5961.00,1,"POPLATEK MESICNE","Ostrava - mesto","north Moravia",323870,0,0,0,1,1,100.0,10673,4.7,5.44,100,18782,18347
1996-02-01,101520,12,8460.00,1,"POPLATEK MESICNE","Hl.m. Praha",Prague,1204953,0,0,0,1,1,100.0,12541,0.2,0.43,167,85677,99107
1996-05-02,92400,12,7700.00,1,"POPLATEK MESICNE",Karvina,"north Moravia",285387,0,2,8,5,7,89.9,10177,6.6,7.75,81,9878,10108
1996-08-06,22932,36,637.00,1,"POPLATEK MESICNE","Usti nad Orlici","east Bohemia",139012,59,41,8,3,10,61.9,8363,2.5,3.49,108,2564,2799
1997-09-01,23328,12,1944.00,1,"POPLATEK MESICNE","Havlickuv Brod","east Bohemia",95907,87,25,5,2,7,59.1,8388,2.4,2.94,87,1658,1668
1996-01-13,71460,36,1985.00,1,"POPLATEK MESICNE","Hl.m. Praha",Prague,1204953,0,0,0,1,1,100.0,12541,0.2,0.43,167,85677,99107
1996-01-07,61560,12,5130.00,1,"POPLATEK TYDNE",Tachov,"west Bohemia",51313,34,12,3,1,4,59.2,8930,3.5,4.20,108,1328,1452
1997-04-08,78600,24,3275.00,1,"POPLATEK MESICNE",Trutnov,"east Bohemia",121947,37,28,7,3,11,70.5,8541,2.5,2.97,131,3496,3839
1993-08-08,170256,24,7094.00,1,"POPLATEK MESICNE","Jindrichuv Hradec","south Bohemia",93931,74,21,10,1,8,56.9,8427,1.1,1.54,107,1874,1913
1993-06-06,299088,36,8308.00,0,"POPLATEK MESICNE",Bruntal,"north Moravia",106054,38,25,6,2,6,63.1,8110,5.7,6.55,109,3244,3079
1996-02-26,53472,12,4456.00,1,"POPLATEK TYDNE",Nymburk,"central Bohemia",81344,61,23,4,2,6,55.3,8899,3.3,3.97,149,2987,2487
1994-11-21,182040,60,3034.00,1,"POPLATEK MESICNE",Prachatice,"south Bohemia",51428,50,11,3,1,4,52.7,8402,3.1,3.98,120,999,1099
1994-05-22,92976,24,3874.00,1,"POPLATEK TYDNE",Tachov,"west Bohemia",51313,34,12,3,1,4,59.2,8930,3.5,4.20,108,1328,1452
1994-03-19,185952,48,3874.00,1,"POPLATEK MESICNE",Chomutov,"north Bohemia",125236,28,11,1,4,5,87.7,9675,6.4,7.68,100,5323,5190
1995-08-27,139464,36,3874.00,0,"POPLATEK MESICNE",Opava,"north Moravia",182027,17,49,12,2,7,56.4,8746,3.3,3.74,90,4355,4433
1993-03-30,347952,48,7249.00,1,"POPLATEK MESICNE",Rokycany,"west Bohemia",45714,52,10,5,1,6,55.6,8843,2.8,3.60,113,818,888
1996-04-25,415800,60,6930.00,1,"POPLATEK MESICNE","Hl.m. Praha",Prague,1204953,0,0,0,1,1,100.0,12541,0.2,0.43,167,85677,99107
1996-04-13,72504,24,3021.00,1,"POPLATEK MESICNE","Karlovy Vary","west Bohemia",122603,25,21,6,2,8,80.0,8991,1.3,2.01,128,5198,5273
1997-02-08,230220,36,6395.00,1,"POPLATEK MESICNE",Rakovnik,"central Bohemia",53921,61,22,1,1,2,41.3,8598,2.7,3.26,123,1597,1875
1995-02-11,20196,36,561.00,1,"POPLATEK MESICNE","Hl.m. Praha",Prague,1204953,0,0,0,1,1,100.0,12541,0.2,0.43,167,85677,99107
1996-10-30,314688,48,6556.00,1,"POPLATEK TYDNE",Benesov,"central Bohemia",88884,80,26,6,2,5,46.7,8507,1.6,1.85,132,2159,2674
1995-01-02,46320,24,1930.00,1,"POPLATEK MESICNE",Decin,"north Bohemia",133777,24,17,7,3,11,84.7,8705,5.7,7.61,116,4650,4859
1996-03-19,48312,24,2013.00,1,"POPLATEK MESICNE",Svitavy,"east Bohemia",102609,75,33,2,3,6,52.0,8187,4.8,5.45,94,2123,2134
1996-04-04,541200,60,9020.00,0,"POPLATEK MESICNE",Karvina,"north Moravia",285387,0,2,8,5,7,89.9,10177,6.6,7.75,81,9878,10108
1994-12-09,99336,24,4139.00,1,"POPLATEK MESICNE","Frydek - Mistek","north Moravia",228848,15,40,18,2,6,57.2,9893,4.0,4.72,96,5623,5887
1993-10-25,199680,60,3328.00,1,"POPLATEK MESICNE",Kolin,"central Bohemia",95616,65,30,4,1,6,51.4,9307,3.8,4.43,118,2616,3040
1996-08-04,159744,48,3328.00,1,"POPLATEK MESICNE",Pisek,"south Bohemia",70699,60,13,2,1,4,65.3,8968,2.8,3.35,131,1740,1910
1995-01-21,49440,60,824.00,1,"POPLATEK MESICNE",Karvina,"north Moravia",285387,0,2,8,5,7,89.9,10177,6.6,7.75,81,9878,10108
1994-02-25,156672,36,4352.00,1,"POPLATEK MESICNE","Plzen - sever","west Bohemia",72541,66,26,10,0,8,36.9,8594,1.6,2.01,112,1580,1525
1997-10-27,17952,12,1496.00,1,"POPLATEK MESICNE",Decin,"north Bohemia",133777,24,17,7,3,11,84.7,8705,5.7,7.61,116,4650,4859
1993-11-27,95808,12,7984.00,1,"POPLATEK MESICNE","Karlovy Vary","west Bohemia",122603,25,21,6,2,8,80.0,8991,1.3,2.01,128,5198,5273
1996-07-07,293160,60,4886.00,1,"POPLATEK MESICNE","Usti nad Orlici","east Bohemia",139012,59,41,8,3,10,61.9,8363,2.5,3.49,108,2564,2799
1995-09-09,200976,48,4187.00,1,"POPLATEK MESICNE",Znojmo,"south Moravia",114200,101,41,4,1,4,43.7,8403,5.7,5.72,105,2157,2718
1993-02-27,24516,12,2043.00,1,"POPLATEK MESICNE","Hl.m. Praha",Prague,1204953,0,0,0,1,1,100.0,12541,0.2,0.43,167,85677,99107
1994-05-21,165120,60,2752.00,1,"POPLATEK MESICNE",Trutnov,"east Bohemia",121947,37,28,7,3,11,70.5,8541,2.5,2.97,131,3496,3839
1995-11-16,466608,48,9721.00,1,"POPLATEK MESICNE","Kutna Hora","central Bohemia",77963,60,23,4,2,4,51.5,8546,2.9,4.02,126,2640,3120
1996-12-04,428784,48,8933.00,1,"POPLATEK MESICNE","Hl.m. Praha",Prague,1204953,0,0,0,1,1,100.0,12541,0.2,0.43,167,85677,99107
1994-11-13,360000,48,7500.00,1,"POPLATEK PO OBRATU",Zlin,"south Moravia",197099,29,41,10,2,10,74.7,9624,1.6,2.31,145,4484,4265
1995-11-09,89340,60,1489.00,1,"POPLATEK MESICNE",Prostejov,"south Moravia",110643,49,41,4,1,4,51.9,8441,3.4,4.48,115,1879,2252
1996-08-21,136344,24,5681.00,1,"POPLATEK MESICNE","Hl.m. Praha",Prague,1204953,0,0,0,1,1,100.0,12541,0.2,0.43,167,85677,99107
1993-03-08,91632,12,7636.00,1,"POPLATEK MESICNE",Melnik,"central Bohemia",94725,38,28,1,3,6,63.4,9920,2.2,2.87,130,4289,4846
1996-12-25,231168,48,4816.00,1,"POPLATEK MESICNE",Opava,"north Moravia",182027,17,49,12,2,7,56.4,8746,3.3,3.74,90,4355,4433
1993-07-05,93888,36,2608.00,1,"POPLATEK PO OBRATU",Vyskov,"south Moravia",86513,38,36,5,1,5,50.5,8288,3.7,4.52,110,1562,1460
1997-06-16,93888,36,2608.00,1,"POPLATEK TYDNE",Benesov,"central Bohemia",88884,80,26,6,2,5,46.7,8507,1.6,1.85,132,2159,2674
1997-04-02,69624,36,1934.00,1,"POPLATEK MESICNE","Usti nad Orlici","east Bohemia",139012,59,41,8,3,10,61.9,8363,2.5,3.49,108,2564,2799
1997-07-06,156420,60,2607.00,1,"POPLATEK TYDNE","Usti nad Orlici","east Bohemia",139012,59,41,8,3,10,61.9,8363,2.5,3.49,108,2564,2799
1996-02-13,66432,24,2768.00,1,"POPLATEK MESICNE","Plzen - mesto","west Bohemia",170449,0,0,0,1,1,100.0,10787,2.6,3.09,131,6041,6261
1996-01-26,335280,48,6985.00,1,"POPLATEK TYDNE",Hodonin,"south Moravia",161954,21,37,20,3,8,48.0,8720,3.7,4.50,116,3729,3651
1993-03-20,111384,24,4641.00,1,"POPLATEK MESICNE",Prachatice,"south Bohemia",51428,50,11,3,1,4,52.7,8402,3.1,3.98,120,999,1099
1993-10-20,50460,60,841.00,1,"POPLATEK MESICNE","Praha - zapad","central Bohemia",75637,35,36,9,0,7,36.5,9622,0.4,0.59,154,3475,3529
1996-09-04,268320,60,4472.00,1,"POPLATEK MESICNE","Hl.m. Praha",Prague,1204953,0,0,0,1,1,100.0,12541,0.2,0.43,167,85677,99107
1997-10-21,437460,60,7291.00,1,"POPLATEK MESICNE","Frydek - Mistek","north Moravia",228848,15,40,18,2,6,57.2,9893,4.0,4.72,96,5623,5887
1994-07-30,380160,60,6336.00,1,"POPLATEK MESICNE","Ostrava - mesto","north Moravia",323870,0,0,0,1,1,100.0,10673,4.7,5.44,100,18782,18347
1993-06-18,272520,60,4542.00,1,"POPLATEK MESICNE","Praha - vychod","central Bohemia",92084,55,29,4,3,5,46.7,10124,0.5,0.54,141,3810,4316
1996-03-27,504000,60,8400.00,1,"POPLATEK MESICNE",Beroun,"central Bohemia",75232,55,26,4,1,5,41.7,8980,1.9,2.21,111,2824,2813
1993-05-30,31248,12,2604.00,1,"POPLATEK MESICNE","Hl.m. Praha",Prague,1204953,0,0,0,1,1,100.0,12541,0.2,0.43,167,85677,99107
1996-06-04,41256,12,3438.00,1,"POPLATEK MESICNE",Prachatice,"south Bohemia",51428,50,11,3,1,4,52.7,8402,3.1,3.98,120,999,1099
1996-04-09,24792,24,1033.00,1,"POPLATEK MESICNE",Vyskov,"south Moravia",86513,38,36,5,1,5,50.5,8288,3.7,4.52,110,1562,1460
1996-10-14,88608,12,7384.00,1,"POPLATEK PO OBRATU","Zdar nad Sazavou","south Moravia",125832,151,41,2,3,5,48.3,8512,3.5,4.12,102,2247,2103
1996-05-03,48744,36,1354.00,1,"POPLATEK MESICNE",Vsetin,"north Moravia",148545,8,35,12,3,4,53.5,8909,4.0,5.56,113,3460,3590
1997-01-11,390000,48,8125.00,1,"POPLATEK PO OBRATU","Havlickuv Brod","east Bohemia",95907,87,25,5,2,7,59.1,8388,2.4,2.94,87,1658,1668
1996-04-20,155616,48,3242.00,1,"POPLATEK MESICNE","Praha - vychod","central Bohemia",92084,55,29,4,3,5,46.7,10124,0.5,0.54,141,3810,4316
1994-05-26,277884,36,7719.00,0,"POPLATEK MESICNE",Chrudim,"east Bohemia",105606,77,26,7,2,7,53.0,8254,2.7,3.76,97,2166,2325
1993-05-08,82896,12,6908.00,1,"POPLATEK MESICNE",Prostejov,"south Moravia",110643,49,41,4,1,4,51.9,8441,3.4,4.48,115,1879,2252
1993-05-23,15420,12,1285.00,1,"POPLATEK MESICNE",Teplice,"north Bohemia",128118,9,16,6,3,8,85.3,9317,6.4,7.07,97,6949,6872
1996-01-28,253512,36,7042.00,0,"POPLATEK TYDNE",Kromeriz,"south Moravia",108871,41,29,7,2,6,62.1,8444,3.2,3.47,106,2595,2305
1994-08-12,123216,48,2567.00,1,"POPLATEK MESICNE",Louny,"north Bohemia",85852,41,23,4,2,4,59.8,8965,7.0,8.23,104,2653,2822
1996-03-27,321180,60,5353.00,1,"POPLATEK MESICNE","Ceske Budejovice","south Bohemia",177686,69,27,10,1,9,74.8,10045,1.4,1.71,135,6604,6295
1996-12-15,253560,60,4226.00,1,"POPLATEK MESICNE",Most,"north Bohemia",119895,17,4,3,2,4,89.9,10446,7.3,9.40,90,4947,4743
1996-10-18,130896,24,5454.00,1,"POPLATEK MESICNE",Louny,"north Bohemia",85852,41,23,4,2,4,59.8,8965,7.0,8.23,104,2653,2822
1996-08-26,30012,12,2501.00,1,"POPLATEK MESICNE","Rychnov nad Kneznou","east Bohemia",78955,50,24,8,1,9,59.0,9060,1.7,2.44,124,1655,1717
1993-08-10,177744,48,3703.00,0,"POPLATEK MESICNE","Novy Jicin","north Moravia",161227,5,35,11,4,10,69.7,8678,5.9,5.57,102,4980,4595
1995-11-29,222180,60,3703.00,0,"POPLATEK MESICNE",Rokycany,"west Bohemia",45714,52,10,5,1,6,55.6,8843,2.8,3.60,113,818,888
1995-11-18,39024,12,3252.00,1,"POPLATEK MESICNE",Zlin,"south Moravia",197099,29,41,10,2,10,74.7,9624,1.6,2.31,145,4484,4265
1995-03-11,77184,36,2144.00,1,"POPLATEK MESICNE","Hl.m. Praha",Prague,1204953,0,0,0,1,1,100.0,12541,0.2,0.43,167,85677,99107
1996-10-11,68124,12,5677.00,1,"POPLATEK MESICNE","Ostrava - mesto","north Moravia",323870,0,0,0,1,1,100.0,10673,4.7,5.44,100,18782,18347
1995-12-29,94512,12,7876.00,0,"POPLATEK MESICNE","Ostrava - mesto","north Moravia",323870,0,0,0,1,1,100.0,10673,4.7,5.44,100,18782,18347
1997-08-08,276084,36,7669.00,1,"POPLATEK MESICNE","Hl.m. Praha",Prague,1204953,0,0,0,1,1,100.0,12541,0.2,0.43,167,85677,99107
1996-10-12,19248,12,1604.00,1,"POPLATEK MESICNE",Beroun,"central Bohemia",75232,55,26,4,1,5,41.7,8980,1.9,2.21,111,2824,2813
1996-08-27,146064,24,6086.00,1,"POPLATEK MESICNE","Ostrava - mesto","north Moravia",323870,0,0,0,1,1,100.0,10673,4.7,5.44,100,18782,18347
1993-11-05,4980,12,415.00,1,"POPLATEK MESICNE",Vyskov,"south Moravia",86513,38,36,5,1,5,50.5,8288,3.7,4.52,110,1562,1460
1996-12-22,40632,12,3386.00,1,"POPLATEK TYDNE",Pribram,"central Bohemia",107870,84,29,6,1,6,58.0,8754,3.8,4.31,137,3804,3868
1997-05-20,71820,36,1995.00,1,"POPLATEK MESICNE",Vyskov,"south Moravia",86513,38,36,5,1,5,50.5,8288,3.7,4.52,110,1562,1460
1996-09-02,207264,48,4318.00,1,"POPLATEK PO OBRATU","Havlickuv Brod","east Bohemia",95907,87,25,5,2,7,59.1,8388,2.4,2.94,87,1658,1668
1996-06-06,68664,24,2861.00,1,"POPLATEK TYDNE",Jihlava,"south Moravia",109164,98,16,6,1,4,63.6,8757,3.3,3.95,96,2212,2471
1996-03-13,67464,12,5622.00,1,"POPLATEK MESICNE",Chomutov,"north Bohemia",125236,28,11,1,4,5,87.7,9675,6.4,7.68,100,5323,5190
1997-04-08,140688,48,2931.00,1,"POPLATEK MESICNE","Jindrichuv Hradec","south Bohemia",93931,74,21,10,1,8,56.9,8427,1.1,1.54,107,1874,1913
1994-12-08,44088,24,1837.00,1,"POPLATEK MESICNE",Nymburk,"central Bohemia",81344,61,23,4,2,6,55.3,8899,3.3,3.97,149,2987,2487
1997-08-29,174840,60,2914.00,1,"POPLATEK MESICNE",Jihlava,"south Moravia",109164,98,16,6,1,4,63.6,8757,3.3,3.95,96,2212,2471
1996-07-19,174960,24,7290.00,1,"POPLATEK MESICNE",Svitavy,"east Bohemia",102609,75,33,2,3,6,52.0,8187,4.8,5.45,94,2123,2134
1994-08-30,161496,36,4486.00,1,"POPLATEK TYDNE",Olomouc,"north Moravia",226122,32,50,7,4,4,62.6,8994,3.8,4.79,110,9672,9208
1993-07-27,158760,60,2646.00,1,"POPLATEK MESICNE","Rychnov nad Kneznou","east Bohemia",78955,50,24,8,1,9,59.0,9060,1.7,2.44,124,1655,1717
1995-10-28,14028,12,1169.00,1,"POPLATEK MESICNE",Blansko,"south Moravia",107911,88,33,6,2,7,50.9,8240,2.5,3.56,99,1850,1903
1996-04-28,271584,48,5658.00,1,"POPLATEK MESICNE","Hl.m. Praha",Prague,1204953,0,0,0,1,1,100.0,12541,0.2,0.43,167,85677,99107
1993-03-12,23628,12,1969.00,1,"POPLATEK MESICNE",Louny,"north Bohemia",85852,41,23,4,2,4,59.8,8965,7.0,8.23,104,2653,2822
1993-03-24,316140,60,5269.00,0,"POPLATEK MESICNE","Hl.m. Praha",Prague,1204953,0,0,0,1,1,100.0,12541,0.2,0.43,167,85677,99107
1995-08-15,444864,48,9268.00,1,"POPLATEK MESICNE",Zlin,"south Moravia",197099,29,41,10,2,10,74.7,9624,1.6,2.31,145,4484,4265
1997-05-08,460980,60,7683.00,0,"POPLATEK MESICNE",Beroun,"central Bohemia",75232,55,26,4,1,5,41.7,8980,1.9,2.21,111,2824,2813
1994-05-01,76380,12,6365.00,1,"POPLATEK MESICNE","Hl.m. Praha",Prague,1204953,0,0,0,1,1,100.0,12541,0.2,0.43,167,85677,99107
1994-11-25,18564,12,1547.00,1,"POPLATEK MESICNE","Hl.m. Praha",Prague,1204953,0,0,0,1,1,100.0,12541,0.2,0.43,167,85677,99107
1996-02-19,68544,24,2856.00,1,"POPLATEK TYDNE",Litomerice,"north Bohemia",114006,71,26,6,2,9,62.3,9065,4.4,5.39,123,4147,4166
1994-04-07,63252,12,5271.00,1,"POPLATEK MESICNE",Melnik,"central Bohemia",94725,38,28,1,3,6,63.4,9920,2.2,2.87,130,4289,4846
1993-01-19,23052,12,1921.00,1,"POPLATEK MESICNE","Brno - mesto","south Moravia",387570,0,0,0,1,1,100.0,9897,1.6,1.96,140,18721,18696
1996-04-23,307200,60,5120.00,0,"POPLATEK MESICNE",Blansko,"south Moravia",107911,88,33,6,2,7,50.9,8240,2.5,3.56,99,1850,1903
1996-11-23,74916,36,2081.00,1,"POPLATEK MESICNE","Hl.m. Praha",Prague,1204953,0,0,0,1,1,100.0,12541,0.2,0.43,167,85677,99107
1997-10-18,153936,24,6414.00,1,"POPLATEK MESICNE",Chrudim,"east Bohemia",105606,77,26,7,2,7,53.0,8254,2.7,3.76,97,2166,2325
1997-07-08,334620,60,5577.00,1,"POPLATEK MESICNE","Usti nad Orlici","east Bohemia",139012,59,41,8,3,10,61.9,8363,2.5,3.49,108,2564,2799
1996-04-18,133848,24,5577.00,1,"POPLATEK MESICNE",Litomerice,"north Bohemia",114006,71,26,6,2,9,62.3,9065,4.4,5.39,123,4147,4166
1997-09-28,96984,36,2694.00,1,"POPLATEK MESICNE","Mlada Boleslav","central Bohemia",112065,95,19,7,1,8,69.4,11277,1.2,1.44,127,5179,4987
1996-05-10,107352,36,2982.00,1,"POPLATEK TYDNE","Plzen - jih","west Bohemia",67298,71,19,10,0,7,43.8,8561,0.6,1.29,110,1029,1127
1997-06-16,63576,12,5298.00,1,"POPLATEK MESICNE","Hl.m. Praha",Prague,1204953,0,0,0,1,1,100.0,12541,0.2,0.43,167,85677,99107
1996-09-22,84600,36,2350.00,0,"POPLATEK MESICNE","Brno - mesto","south Moravia",387570,0,0,0,1,1,100.0,9897,1.6,1.96,140,18721,18696
1996-11-19,84288,48,1756.00,1,"POPLATEK MESICNE",Hodonin,"south Moravia",161954,21,37,20,3,8,48.0,8720,3.7,4.50,116,3729,3651
1997-01-25,106128,36,2948.00,1,"POPLATEK TYDNE",Liberec,"north Bohemia",159617,29,19,8,1,9,85.2,9198,3.3,4.28,131,5796,6132
1993-11-03,158976,48,3312.00,1,"POPLATEK MESICNE","Usti nad Orlici","east Bohemia",139012,59,41,8,3,10,61.9,8363,2.5,3.49,108,2564,2799
1995-07-22,137904,24,5746.00,0,"POPLATEK MESICNE","Praha - zapad","central Bohemia",75637,35,36,9,0,7,36.5,9622,0.4,0.59,154,3475,3529
1996-05-26,41856,48,872.00,1,"POPLATEK MESICNE","Brno - mesto","south Moravia",387570,0,0,0,1,1,100.0,9897,1.6,1.96,140,18721,18696
1997-10-05,151200,36,4200.00,1,"POPLATEK MESICNE","Kutna Hora","central Bohemia",77963,60,23,4,2,4,51.5,8546,2.9,4.02,126,2640,3120
1996-05-03,100800,24,4200.00,0,"POPLATEK MESICNE",Svitavy,"east Bohemia",102609,75,33,2,3,6,52.0,8187,4.8,5.45,94,2123,2134
1996-08-19,212976,36,5916.00,1,"POPLATEK MESICNE","Hl.m. Praha",Prague,1204953,0,0,0,1,1,100.0,12541,0.2,0.43,167,85677,99107
1995-10-04,405780,60,6763.00,1,"POPLATEK MESICNE","Uherske Hradiste","south Moravia",145688,22,41,13,2,5,40.7,8544,1.2,1.86,109,2719,2906
1994-04-08,79632,24,3318.00,1,"POPLATEK MESICNE","Zdar nad Sazavou","south Moravia",125832,151,41,2,3,5,48.3,8512,3.5,4.12,102,2247,2103
1993-10-14,244560,60,4076.00,1,"POPLATEK MESICNE",Breclav,"south Moravia",124605,11,42,14,1,8,46.0,8772,4.6,4.98,126,2854,3158
1997-02-20,41988,12,3499.00,1,"POPLATEK MESICNE",Vsetin,"north Moravia",148545,8,35,12,3,4,53.5,8909,4.0,5.56,113,3460,3590
1996-02-04,164196,36,4561.00,1,"POPLATEK PO OBRATU",Zlin,"south Moravia",197099,29,41,10,2,10,74.7,9624,1.6,2.31,145,4484,4265
1996-07-23,51360,12,4280.00,0,"POPLATEK MESICNE",Trebic,"south Moravia",117897,139,28,5,1,6,53.8,8814,4.7,5.74,107,2112,2059
1993-11-16,51408,24,2142.00,1,"POPLATEK MESICNE",Rokycany,"west Bohemia",45714,52,10,5,1,6,55.6,8843,2.8,3.60,113,818,888
1996-04-29,100128,24,4172.00,1,"POPLATEK MESICNE","Ostrava - mesto","north Moravia",323870,0,0,0,1,1,100.0,10673,4.7,5.44,100,18782,18347
1997-01-08,327660,60,5461.00,1,"POPLATEK MESICNE",Louny,"north Bohemia",85852,41,23,4,2,4,59.8,8965,7.0,8.23,104,2653,2822
1996-03-11,90156,12,7513.00,1,"POPLATEK MESICNE",Jesenik,"north Moravia",42821,4,13,5,1,3,48.4,8173,NULL,7.01,124,NULL,1358
1994-01-15,221280,48,4610.00,1,"POPLATEK TYDNE","Ostrava - mesto","north Moravia",323870,0,0,0,1,1,100.0,10673,4.7,5.44,100,18782,18347
1993-09-10,97224,24,4051.00,1,"POPLATEK MESICNE","Karlovy Vary","west Bohemia",122603,25,21,6,2,8,80.0,8991,1.3,2.01,128,5198,5273
1995-07-05,74040,12,6170.00,1,"POPLATEK MESICNE",Opava,"north Moravia",182027,17,49,12,2,7,56.4,8746,3.3,3.74,90,4355,4433
1995-04-26,73836,36,2051.00,1,"POPLATEK MESICNE",Most,"north Bohemia",119895,17,4,3,2,4,89.9,10446,7.3,9.40,90,4947,4743
1993-06-07,87816,12,7318.00,1,"POPLATEK MESICNE","Ceska Lipa","north Bohemia",105058,32,19,7,2,10,81.0,9272,2.8,3.22,118,4340,4505
1996-06-16,192744,36,5354.00,1,"POPLATEK MESICNE","Uherske Hradiste","south Moravia",145688,22,41,13,2,5,40.7,8544,1.2,1.86,109,2719,2906
1993-06-02,192744,36,5354.00,1,"POPLATEK MESICNE",Prostejov,"south Moravia",110643,49,41,4,1,4,51.9,8441,3.4,4.48,115,1879,2252
1996-09-03,321240,60,5354.00,1,"POPLATEK MESICNE","Ceske Budejovice","south Bohemia",177686,69,27,10,1,9,74.8,10045,1.4,1.71,135,6604,6295
1995-12-27,66480,24,2770.00,0,"POPLATEK TYDNE",Opava,"north Moravia",182027,17,49,12,2,7,56.4,8746,3.3,3.74,90,4355,4433
1997-04-13,86184,36,2394.00,1,"POPLATEK TYDNE",Pelhrimov,"south Bohemia",74062,99,15,4,2,7,61.4,8114,2.3,2.62,119,1003,1181
1995-10-09,93960,60,1566.00,1,"POPLATEK MESICNE",Jicin,"east Bohemia",77917,85,19,6,1,5,53.5,8390,2.2,2.89,132,2080,2122
1994-11-10,15192,24,633.00,1,"POPLATEK MESICNE","Karlovy Vary","west Bohemia",122603,25,21,6,2,8,80.0,8991,1.3,2.01,128,5198,5273
1995-01-03,135360,48,2820.00,1,"POPLATEK MESICNE",Svitavy,"east Bohemia",102609,75,33,2,3,6,52.0,8187,4.8,5.45,94,2123,2134
1997-08-03,81144,36,2254.00,1,"POPLATEK MESICNE","Frydek - Mistek","north Moravia",228848,15,40,18,2,6,57.2,9893,4.0,4.72,96,5623,5887
1997-02-06,61320,60,1022.00,1,"POPLATEK MESICNE",Breclav,"south Moravia",124605,11,42,14,1,8,46.0,8772,4.6,4.98,126,2854,3158
1993-06-05,300204,36,8339.00,1,"POPLATEK MESICNE","Plzen - jih","west Bohemia",67298,71,19,10,0,7,43.8,8561,0.6,1.29,110,1029,1127
1994-08-27,20220,12,1685.00,1,"POPLATEK MESICNE",Nymburk,"central Bohemia",81344,61,23,4,2,6,55.3,8899,3.3,3.97,149,2987,2487
1996-06-08,64656,48,1347.00,1,"POPLATEK MESICNE","Plzen - jih","west Bohemia",67298,71,19,10,0,7,43.8,8561,0.6,1.29,110,1029,1127
1997-09-24,66696,24,2779.00,1,"POPLATEK MESICNE","Hl.m. Praha",Prague,1204953,0,0,0,1,1,100.0,12541,0.2,0.43,167,85677,99107
1996-07-21,66696,24,2779.00,0,"POPLATEK MESICNE",Beroun,"central Bohemia",75232,55,26,4,1,5,41.7,8980,1.9,2.21,111,2824,2813
1996-06-15,33348,12,2779.00,1,"POPLATEK MESICNE",Nymburk,"central Bohemia",81344,61,23,4,2,6,55.3,8899,3.3,3.97,149,2987,2487
1996-12-12,87528,24,3647.00,1,"POPLATEK PO OBRATU",Vsetin,"north Moravia",148545,8,35,12,3,4,53.5,8909,4.0,5.56,113,3460,3590
1995-10-15,402000,60,6700.00,1,"POPLATEK MESICNE",Kladno,"central Bohemia",149893,63,29,6,2,6,67.4,9753,4.6,5.05,109,5244,5892
1997-01-03,106944,24,4456.00,1,"POPLATEK MESICNE",Vyskov,"south Moravia",86513,38,36,5,1,5,50.5,8288,3.7,4.52,110,1562,1460
1995-08-08,162624,48,3388.00,1,"POPLATEK MESICNE",Karvina,"north Moravia",285387,0,2,8,5,7,89.9,10177,6.6,7.75,81,9878,10108
1996-10-28,97176,24,4049.00,1,"POPLATEK MESICNE","Mlada Boleslav","central Bohemia",112065,95,19,7,1,8,69.4,11277,1.2,1.44,127,5179,4987
1997-04-14,168264,36,4674.00,1,"POPLATEK MESICNE",Opava,"north Moravia",182027,17,49,12,2,7,56.4,8746,3.3,3.74,90,4355,4433
1995-02-13,107640,24,4485.00,1,"POPLATEK MESICNE",Benesov,"central Bohemia",88884,80,26,6,2,5,46.7,8507,1.6,1.85,132,2159,2674
1997-02-21,204780,60,3413.00,1,"POPLATEK MESICNE","Brno - mesto","south Moravia",387570,0,0,0,1,1,100.0,9897,1.6,1.96,140,18721,18696
1994-01-14,465072,48,9689.00,1,"POPLATEK MESICNE","Zdar nad Sazavou","south Moravia",125832,151,41,2,3,5,48.3,8512,3.5,4.12,102,2247,2103
1997-08-08,219456,48,4572.00,1,"POPLATEK MESICNE",Nachod,"east Bohemia",112709,48,20,7,3,10,73.5,8369,1.7,2.31,117,2854,2618
1996-12-18,465504,48,9698.00,0,"POPLATEK MESICNE",Olomouc,"north Moravia",226122,32,50,7,4,4,62.6,8994,3.8,4.79,110,9672,9208
1996-06-08,59136,48,1232.00,1,"POPLATEK MESICNE","Plzen - mesto","west Bohemia",170449,0,0,0,1,1,100.0,10787,2.6,3.09,131,6041,6261
1994-06-04,21396,12,1783.00,1,"POPLATEK MESICNE","Cesky Krumlov","south Bohemia",58796,22,16,7,1,5,51.9,9045,3.1,3.60,124,1845,1879
1996-02-04,141648,24,5902.00,1,"POPLATEK MESICNE","Usti nad Orlici","east Bohemia",139012,59,41,8,3,10,61.9,8363,2.5,3.49,108,2564,2799
1995-04-13,213300,36,5925.00,1,"POPLATEK MESICNE",Pardubice,"east Bohemia",162580,83,26,5,1,6,72.8,9538,1.5,1.81,111,6079,5410
1997-06-21,335184,48,6983.00,0,"POPLATEK MESICNE",Bruntal,"north Moravia",106054,38,25,6,2,6,63.1,8110,5.7,6.55,109,3244,3079
1996-03-12,76080,12,6340.00,1,"POPLATEK MESICNE",Kolin,"central Bohemia",95616,65,30,4,1,6,51.4,9307,3.8,4.43,118,2616,3040
1993-06-20,117024,24,4876.00,1,"POPLATEK MESICNE","Ceske Budejovice","south Bohemia",177686,69,27,10,1,9,74.8,10045,1.4,1.71,135,6604,6295
1994-02-06,98832,48,2059.00,1,"POPLATEK MESICNE","Havlickuv Brod","east Bohemia",95907,87,25,5,2,7,59.1,8388,2.4,2.94,87,1658,1668
1993-02-20,143904,24,5996.00,1,"POPLATEK MESICNE",Pribram,"central Bohemia",107870,84,29,6,1,6,58.0,8754,3.8,4.31,137,3804,3868
1995-07-29,359760,60,5996.00,1,"POPLATEK MESICNE","Hradec Kralove","east Bohemia",161854,73,21,6,1,6,76.3,9425,1.7,2.50,125,4085,3891
1996-10-14,289920,48,6040.00,1,"POPLATEK MESICNE",Decin,"north Bohemia",133777,24,17,7,3,11,84.7,8705,5.7,7.61,116,4650,4859
1996-08-19,150180,60,2503.00,1,"POPLATEK TYDNE",Prostejov,"south Moravia",110643,49,41,4,1,4,51.9,8441,3.4,4.48,115,1879,2252
1996-01-22,179328,48,3736.00,1,"POPLATEK MESICNE","Brno - mesto","south Moravia",387570,0,0,0,1,1,100.0,9897,1.6,1.96,140,18721,18696
1996-01-11,258444,36,7179.00,1,"POPLATEK TYDNE","Hl.m. Praha",Prague,1204953,0,0,0,1,1,100.0,12541,0.2,0.43,167,85677,99107
1994-08-01,128988,36,3583.00,0,"POPLATEK TYDNE",Strakonice,"south Bohemia",70646,94,14,3,1,4,58.4,8547,2.6,3.64,120,1563,1542
1996-02-12,165168,36,4588.00,1,"POPLATEK MESICNE","Hl.m. Praha",Prague,1204953,0,0,0,1,1,100.0,12541,0.2,0.43,167,85677,99107
1995-12-15,110112,24,4588.00,1,"POPLATEK MESICNE",Blansko,"south Moravia",107911,88,33,6,2,7,50.9,8240,2.5,3.56,99,1850,1903
1995-08-03,11400,12,950.00,1,"POPLATEK MESICNE","Brno - mesto","south Moravia",387570,0,0,0,1,1,100.0,9897,1.6,1.96,140,18721,18696
1995-08-27,61656,24,2569.00,0,"POPLATEK TYDNE",Rakovnik,"central Bohemia",53921,61,22,1,1,2,41.3,8598,2.7,3.26,123,1597,1875
1996-04-12,317520,60,5292.00,1,"POPLATEK MESICNE","Kutna Hora","central Bohemia",77963,60,23,4,2,4,51.5,8546,2.9,4.02,126,2640,3120
1995-08-05,53232,48,1109.00,1,"POPLATEK MESICNE",Olomouc,"north Moravia",226122,32,50,7,4,4,62.6,8994,3.8,4.79,110,9672,9208
1993-06-21,323472,48,6739.00,1,"POPLATEK MESICNE","Hl.m. Praha",Prague,1204953,0,0,0,1,1,100.0,12541,0.2,0.43,167,85677,99107
1995-04-03,20352,48,424.00,1,"POPLATEK MESICNE",Jihlava,"south Moravia",109164,98,16,6,1,4,63.6,8757,3.3,3.95,96,2212,2471
1996-12-08,57060,12,4755.00,1,"POPLATEK TYDNE","Frydek - Mistek","north Moravia",228848,15,40,18,2,6,57.2,9893,4.0,4.72,96,5623,5887
1997-05-13,22356,36,621.00,1,"POPLATEK MESICNE",Kolin,"central Bohemia",95616,65,30,4,1,6,51.4,9307,3.8,4.43,118,2616,3040
1997-02-24,58764,12,4897.00,1,"POPLATEK MESICNE","Brno - mesto","south Moravia",387570,0,0,0,1,1,100.0,9897,1.6,1.96,140,18721,18696
1996-02-03,399120,60,6652.00,1,"POPLATEK MESICNE",Prerov,"north Moravia",138032,67,30,4,2,5,64.6,8819,5.3,5.66,99,4063,4505
1997-06-29,79824,12,6652.00,1,"POPLATEK TYDNE",Rakovnik,"central Bohemia",53921,61,22,1,1,2,41.3,8598,2.7,3.26,123,1597,1875
1995-08-18,320976,48,6687.00,0,"POPLATEK MESICNE","Hl.m. Praha",Prague,1204953,0,0,0,1,1,100.0,12541,0.2,0.43,167,85677,99107
1993-07-01,14628,12,1219.00,1,"POPLATEK MESICNE","Brno - venkov","south Moravia",157042,49,70,18,0,9,33.9,8743,1.8,2.43,111,3659,3894
1993-06-23,173808,24,7242.00,1,"POPLATEK PO OBRATU",Vsetin,"north Moravia",148545,8,35,12,3,4,53.5,8909,4.0,5.56,113,3460,3590
1993-10-25,193968,36,5388.00,1,"POPLATEK PO OBRATU",Olomouc,"north Moravia",226122,32,50,7,4,4,62.6,8994,3.8,4.79,110,9672,9208
1995-07-14,276300,60,4605.00,1,"POPLATEK MESICNE",Zlin,"south Moravia",197099,29,41,10,2,10,74.7,9624,1.6,2.31,145,4484,4265
1996-01-12,129312,24,5388.00,0,"POPLATEK MESICNE",Kladno,"central Bohemia",149893,63,29,6,2,6,67.4,9753,4.6,5.05,109,5244,5892
1996-07-04,117420,60,1957.00,1,"POPLATEK MESICNE",Semily,"east Bohemia",75685,31,28,5,1,9,60.8,8208,1.8,2.26,155,1660,2123
1993-01-13,79608,24,3317.00,1,"POPLATEK MESICNE",Chrudim,"east Bohemia",105606,77,26,7,2,7,53.0,8254,2.7,3.76,97,2166,2325
1997-09-18,170832,48,3559.00,1,"POPLATEK MESICNE","Cesky Krumlov","south Bohemia",58796,22,16,7,1,5,51.9,9045,3.1,3.60,124,1845,1879
1996-09-16,240528,48,5011.00,1,"POPLATEK MESICNE",Pardubice,"east Bohemia",162580,83,26,5,1,6,72.8,9538,1.5,1.81,111,6079,5410
1993-04-29,300660,60,5011.00,1,"POPLATEK MESICNE",Teplice,"north Bohemia",128118,9,16,6,3,8,85.3,9317,6.4,7.07,97,6949,6872
1996-10-20,90180,36,2505.00,1,"POPLATEK MESICNE","Plzen - sever","west Bohemia",72541,66,26,10,0,8,36.9,8594,1.6,2.01,112,1580,1525
1995-05-18,68340,60,1139.00,1,"POPLATEK MESICNE",Kladno,"central Bohemia",149893,63,29,6,2,6,67.4,9753,4.6,5.05,109,5244,5892
1996-09-06,202848,48,4226.00,1,"POPLATEK TYDNE",Sumperk,"north Moravia",127369,31,32,13,2,7,51.2,8369,4.7,5.88,107,3736,2807
1993-05-21,149340,60,2489.00,1,"POPLATEK TYDNE",Chrudim,"east Bohemia",105606,77,26,7,2,7,53.0,8254,2.7,3.76,97,2166,2325
1996-04-26,158184,36,4394.00,1,"POPLATEK MESICNE",Pardubice,"east Bohemia",162580,83,26,5,1,6,72.8,9538,1.5,1.81,111,6079,5410
1994-10-22,368880,60,6148.00,1,"POPLATEK MESICNE","Zdar nad Sazavou","south Moravia",125832,151,41,2,3,5,48.3,8512,3.5,4.12,102,2247,2103
1993-04-14,174744,24,7281.00,0,"POPLATEK MESICNE","Karlovy Vary","west Bohemia",122603,25,21,6,2,8,80.0,8991,1.3,2.01,128,5198,5273
1993-03-22,174744,24,7281.00,0,"POPLATEK MESICNE",Chomutov,"north Bohemia",125236,28,11,1,4,5,87.7,9675,6.4,7.68,100,5323,5190
1997-02-19,78696,36,2186.00,1,"POPLATEK MESICNE",Olomouc,"north Moravia",226122,32,50,7,4,4,62.6,8994,3.8,4.79,110,9672,9208
1995-12-17,349392,48,7279.00,1,"POPLATEK MESICNE",Hodonin,"south Moravia",161954,21,37,20,3,8,48.0,8720,3.7,4.50,116,3729,3651
1993-08-16,209184,48,4358.00,1,"POPLATEK MESICNE","Usti nad Orlici","east Bohemia",139012,59,41,8,3,10,61.9,8363,2.5,3.49,108,2564,2799
1995-03-24,32640,48,680.00,1,"POPLATEK MESICNE","Hradec Kralove","east Bohemia",161854,73,21,6,1,6,76.3,9425,1.7,2.50,125,4085,3891
1997-08-11,140880,60,2348.00,1,"POPLATEK MESICNE","Cesky Krumlov","south Bohemia",58796,22,16,7,1,5,51.9,9045,3.1,3.60,124,1845,1879
1994-07-14,44628,12,3719.00,1,"POPLATEK TYDNE",Rakovnik,"central Bohemia",53921,61,22,1,1,2,41.3,8598,2.7,3.26,123,1597,1875
1996-03-16,221880,60,3698.00,1,"POPLATEK MESICNE",Nymburk,"central Bohemia",81344,61,23,4,2,6,55.3,8899,3.3,3.97,149,2987,2487
1996-02-27,44376,12,3698.00,1,"POPLATEK MESICNE","Cesky Krumlov","south Bohemia",58796,22,16,7,1,5,51.9,9045,3.1,3.60,124,1845,1879
1996-07-10,177504,48,3698.00,1,"POPLATEK PO OBRATU",Prachatice,"south Bohemia",51428,50,11,3,1,4,52.7,8402,3.1,3.98,120,999,1099
1993-02-08,83016,12,6918.00,1,"POPLATEK MESICNE",Karvina,"north Moravia",285387,0,2,8,5,7,89.9,10177,6.6,7.75,81,9878,10108
1994-06-17,225420,60,3757.00,1,"POPLATEK MESICNE",Trebic,"south Moravia",117897,139,28,5,1,6,53.8,8814,4.7,5.74,107,2112,2059
1994-11-15,285600,60,4760.00,1,"POPLATEK TYDNE",Kolin,"central Bohemia",95616,65,30,4,1,6,51.4,9307,3.8,4.43,118,2616,3040
1995-01-08,98592,24,4108.00,1,"POPLATEK PO OBRATU","Praha - vychod","central Bohemia",92084,55,29,4,3,5,46.7,10124,0.5,0.54,141,3810,4316
1997-09-04,99216,36,2756.00,1,"POPLATEK MESICNE","Hl.m. Praha",Prague,1204953,0,0,0,1,1,100.0,12541,0.2,0.43,167,85677,99107
1993-07-20,103680,60,1728.00,0,"POPLATEK MESICNE","Havlickuv Brod","east Bohemia",95907,87,25,5,2,7,59.1,8388,2.4,2.94,87,1658,1668
1995-04-19,232560,48,4845.00,1,"POPLATEK PO OBRATU","Ceske Budejovice","south Bohemia",177686,69,27,10,1,9,74.8,10045,1.4,1.71,135,6604,6295
1995-01-25,290700,60,4845.00,0,"POPLATEK MESICNE","Usti nad Orlici","east Bohemia",139012,59,41,8,3,10,61.9,8363,2.5,3.49,108,2564,2799
1995-07-05,232560,48,4845.00,1,"POPLATEK PO OBRATU","Ostrava - mesto","north Moravia",323870,0,0,0,1,1,100.0,10673,4.7,5.44,100,18782,18347
1995-06-08,31176,24,1299.00,1,"POPLATEK MESICNE","Hl.m. Praha",Prague,1204953,0,0,0,1,1,100.0,12541,0.2,0.43,167,85677,99107
1995-07-14,123600,60,2060.00,1,"POPLATEK MESICNE",Karvina,"north Moravia",285387,0,2,8,5,7,89.9,10177,6.6,7.75,81,9878,10108
1996-07-18,177804,36,4939.00,1,"POPLATEK MESICNE",Kolin,"central Bohemia",95616,65,30,4,1,6,51.4,9307,3.8,4.43,118,2616,3040
1993-01-25,65184,12,5432.00,1,"POPLATEK MESICNE","Brno - mesto","south Moravia",387570,0,0,0,1,1,100.0,9897,1.6,1.96,140,18721,18696
1996-10-25,184620,60,3077.00,1,"POPLATEK MESICNE",Jicin,"east Bohemia",77917,85,19,6,1,5,53.5,8390,2.2,2.89,132,2080,2122
1993-11-26,87216,48,1817.00,0,"POPLATEK MESICNE","Cesky Krumlov","south Bohemia",58796,22,16,7,1,5,51.9,9045,3.1,3.60,124,1845,1879
1997-06-06,78720,48,1640.00,1,"POPLATEK MESICNE","Plzen - jih","west Bohemia",67298,71,19,10,0,7,43.8,8561,0.6,1.29,110,1029,1127
1993-09-07,141240,24,5885.00,1,"POPLATEK MESICNE",Svitavy,"east Bohemia",102609,75,33,2,3,6,52.0,8187,4.8,5.45,94,2123,2134
1993-11-21,61056,48,1272.00,1,"POPLATEK MESICNE","Hl.m. Praha",Prague,1204953,0,0,0,1,1,100.0,12541,0.2,0.43,167,85677,99107
1993-08-24,28248,24,1177.00,1,"POPLATEK MESICNE",Pardubice,"east Bohemia",162580,83,26,5,1,6,72.8,9538,1.5,1.81,111,6079,5410
1993-03-19,464520,60,7742.00,0,"POPLATEK TYDNE","Kutna Hora","central Bohemia",77963,60,23,4,2,4,51.5,8546,2.9,4.02,126,2640,3120
1993-04-22,11736,24,489.00,1,"POPLATEK MESICNE","Hl.m. Praha",Prague,1204953,0,0,0,1,1,100.0,12541,0.2,0.43,167,85677,99107
1993-08-28,276660,36,7685.00,0,"POPLATEK MESICNE",Breclav,"south Moravia",124605,11,42,14,1,8,46.0,8772,4.6,4.98,126,2854,3158
1997-03-08,5148,12,429.00,1,"POPLATEK MESICNE","Hl.m. Praha",Prague,1204953,0,0,0,1,1,100.0,12541,0.2,0.43,167,85677,99107
1996-08-28,321360,60,5356.00,1,"POPLATEK MESICNE","Karlovy Vary","west Bohemia",122603,25,21,6,2,8,80.0,8991,1.3,2.01,128,5198,5273
1996-09-15,407952,48,8499.00,0,"POPLATEK MESICNE",Prachatice,"south Bohemia",51428,50,11,3,1,4,52.7,8402,3.1,3.98,120,999,1099
1996-09-19,360864,48,7518.00,0,"POPLATEK TYDNE","Kutna Hora","central Bohemia",77963,60,23,4,2,4,51.5,8546,2.9,4.02,126,2640,3120
1997-06-15,26208,36,728.00,1,"POPLATEK MESICNE",Rokycany,"west Bohemia",45714,52,10,5,1,6,55.6,8843,2.8,3.60,113,818,888
1994-03-07,270648,36,7518.00,0,"POPLATEK TYDNE","Hl.m. Praha",Prague,1204953,0,0,0,1,1,100.0,12541,0.2,0.43,167,85677,99107
1997-01-22,67608,24,2817.00,1,"POPLATEK MESICNE","Brno - mesto","south Moravia",387570,0,0,0,1,1,100.0,9897,1.6,1.96,140,18721,18696
1993-12-27,59760,24,2490.00,1,"POPLATEK MESICNE","Ostrava - mesto","north Moravia",323870,0,0,0,1,1,100.0,10673,4.7,5.44,100,18782,18347
1996-11-11,247920,48,5165.00,1,"POPLATEK MESICNE",Chomutov,"north Bohemia",125236,28,11,1,4,5,87.7,9675,6.4,7.68,100,5323,5190
1996-05-13,247920,48,5165.00,0,"POPLATEK MESICNE",Bruntal,"north Moravia",106054,38,25,6,2,6,63.1,8110,5.7,6.55,109,3244,3079
1993-07-26,398640,60,6644.00,1,"POPLATEK TYDNE","Ostrava - mesto","north Moravia",323870,0,0,0,1,1,100.0,10673,4.7,5.44,100,18782,18347
1996-11-01,87360,24,3640.00,1,"POPLATEK MESICNE",Kolin,"central Bohemia",95616,65,30,4,1,6,51.4,9307,3.8,4.43,118,2616,3040
1993-07-21,87360,24,3640.00,1,"POPLATEK MESICNE",Louny,"north Bohemia",85852,41,23,4,2,4,59.8,8965,7.0,8.23,104,2653,2822
1995-04-05,85632,48,1784.00,1,"POPLATEK MESICNE",Zlin,"south Moravia",197099,29,41,10,2,10,74.7,9624,1.6,2.31,145,4484,4265
1993-11-26,79920,60,1332.00,1,"POPLATEK MESICNE","Plzen - mesto","west Bohemia",170449,0,0,0,1,1,100.0,10787,2.6,3.09,131,6041,6261
1995-05-27,270384,48,5633.00,1,"POPLATEK MESICNE",Beroun,"central Bohemia",75232,55,26,4,1,5,41.7,8980,1.9,2.21,111,2824,2813
1993-08-01,17508,12,1459.00,1,"POPLATEK MESICNE","Ostrava - mesto","north Moravia",323870,0,0,0,1,1,100.0,10673,4.7,5.44,100,18782,18347
1995-03-15,181020,60,3017.00,1,"POPLATEK MESICNE","Rychnov nad Kneznou","east Bohemia",78955,50,24,8,1,9,59.0,9060,1.7,2.44,124,1655,1717
1995-10-09,72408,24,3017.00,0,"POPLATEK PO OBRATU",Tachov,"west Bohemia",51313,34,12,3,1,4,59.2,8930,3.5,4.20,108,1328,1452
1993-03-29,36684,12,3057.00,1,"POPLATEK MESICNE",Tachov,"west Bohemia",51313,34,12,3,1,4,59.2,8930,3.5,4.20,108,1328,1452
1995-05-08,110136,24,4589.00,1,"POPLATEK MESICNE","Hl.m. Praha",Prague,1204953,0,0,0,1,1,100.0,12541,0.2,0.43,167,85677,99107
1996-11-01,34572,12,2881.00,1,"POPLATEK MESICNE","Hl.m. Praha",Prague,1204953,0,0,0,1,1,100.0,12541,0.2,0.43,167,85677,99107
1996-07-27,10944,36,304.00,1,"POPLATEK MESICNE",Chomutov,"north Bohemia",125236,28,11,1,4,5,87.7,9675,6.4,7.68,100,5323,5190
1996-07-17,150912,36,4192.00,1,"POPLATEK MESICNE",Svitavy,"east Bohemia",102609,75,33,2,3,6,52.0,8187,4.8,5.45,94,2123,2134
1994-02-08,43164,12,3597.00,1,"POPLATEK MESICNE",Trebic,"south Moravia",117897,139,28,5,1,6,53.8,8814,4.7,5.74,107,2112,2059
1993-01-26,76908,12,6409.00,0,"POPLATEK MESICNE",Pribram,"central Bohemia",107870,84,29,6,1,6,58.0,8754,3.8,4.31,137,3804,3868
1996-07-23,104964,12,8747.00,1,"POPLATEK MESICNE","Kutna Hora","central Bohemia",77963,60,23,4,2,4,51.5,8546,2.9,4.02,126,2640,3120
1997-09-13,38496,12,3208.00,1,"POPLATEK MESICNE",Melnik,"central Bohemia",94725,38,28,1,3,6,63.4,9920,2.2,2.87,130,4289,4846
1996-12-18,76992,24,3208.00,1,"POPLATEK MESICNE","Ostrava - mesto","north Moravia",323870,0,0,0,1,1,100.0,10673,4.7,5.44,100,18782,18347
1993-03-05,212400,36,5900.00,1,"POPLATEK TYDNE",Louny,"north Bohemia",85852,41,23,4,2,4,59.8,8965,7.0,8.23,104,2653,2822
1996-10-20,390660,60,6511.00,1,"POPLATEK MESICNE","Hl.m. Praha",Prague,1204953,0,0,0,1,1,100.0,12541,0.2,0.43,167,85677,99107
1995-03-27,60156,36,1671.00,0,"POPLATEK MESICNE","Jindrichuv Hradec","south Bohemia",93931,74,21,10,1,8,56.9,8427,1.1,1.54,107,1874,1913
1995-07-08,100260,60,1671.00,1,"POPLATEK MESICNE","Hl.m. Praha",Prague,1204953,0,0,0,1,1,100.0,12541,0.2,0.43,167,85677,99107
1996-01-03,294384,48,6133.00,1,"POPLATEK MESICNE","Brno - mesto","south Moravia",387570,0,0,0,1,1,100.0,9897,1.6,1.96,140,18721,18696
1996-02-10,116496,24,4854.00,1,"POPLATEK MESICNE",Trebic,"south Moravia",117897,139,28,5,1,6,53.8,8814,4.7,5.74,107,2112,2059
1996-06-25,22968,36,638.00,1,"POPLATEK MESICNE","Jindrichuv Hradec","south Bohemia",93931,74,21,10,1,8,56.9,8427,1.1,1.54,107,1874,1913
1996-06-08,127200,48,2650.00,1,"POPLATEK MESICNE","Jablonec n. Nisou","north Bohemia",88768,10,18,5,1,7,80.5,8867,1.0,1.21,130,3384,3620
1993-03-15,95400,36,2650.00,1,"POPLATEK TYDNE",Semily,"east Bohemia",75685,31,28,5,1,9,60.8,8208,1.8,2.26,155,1660,2123
1996-12-28,64860,60,1081.00,1,"POPLATEK MESICNE",Louny,"north Bohemia",85852,41,23,4,2,4,59.8,8965,7.0,8.23,104,2653,2822
1993-09-15,137880,60,2298.00,0,"POPLATEK TYDNE","Rychnov nad Kneznou","east Bohemia",78955,50,24,8,1,9,59.0,9060,1.7,2.44,124,1655,1717
1994-07-28,37908,12,3159.00,1,"POPLATEK MESICNE","Uherske Hradiste","south Moravia",145688,22,41,13,2,5,40.7,8544,1.2,1.86,109,2719,2906
1996-05-11,17184,12,1432.00,1,"POPLATEK MESICNE","Hl.m. Praha",Prague,1204953,0,0,0,1,1,100.0,12541,0.2,0.43,167,85677,99107
1995-08-19,124344,36,3454.00,1,"POPLATEK MESICNE","Hradec Kralove","east Bohemia",161854,73,21,6,1,6,76.3,9425,1.7,2.50,125,4085,3891
1996-10-22,49320,36,1370.00,1,"POPLATEK MESICNE",Prostejov,"south Moravia",110643,49,41,4,1,4,51.9,8441,3.4,4.48,115,1879,2252
1997-05-12,139488,24,5812.00,1,"POPLATEK TYDNE",Beroun,"central Bohemia",75232,55,26,4,1,5,41.7,8980,1.9,2.21,111,2824,2813
1994-06-01,194880,48,4060.00,1,"POPLATEK MESICNE","Ostrava - mesto","north Moravia",323870,0,0,0,1,1,100.0,10673,4.7,5.44,100,18782,18347
1993-09-08,25944,24,1081.00,1,"POPLATEK MESICNE","Usti nad Labem","north Bohemia",118650,8,8,5,1,3,85.6,9832,3.3,4.48,114,6445,5471
1996-10-12,475680,48,9910.00,1,"POPLATEK MESICNE",Liberec,"north Bohemia",159617,29,19,8,1,9,85.2,9198,3.3,4.28,131,5796,6132
1995-07-27,96768,36,2688.00,1,"POPLATEK MESICNE",Louny,"north Bohemia",85852,41,23,4,2,4,59.8,8965,7.0,8.23,104,2653,2822
1996-12-26,288720,48,6015.00,1,"POPLATEK MESICNE",Trutnov,"east Bohemia",121947,37,28,7,3,11,70.5,8541,2.5,2.97,131,3496,3839
1997-10-12,495180,60,8253.00,1,"POPLATEK MESICNE",Jesenik,"north Moravia",42821,4,13,5,1,3,48.4,8173,NULL,7.01,124,NULL,1358
1997-07-17,63972,36,1777.00,0,"POPLATEK PO OBRATU","Brno - venkov","south Moravia",157042,49,70,18,0,9,33.9,8743,1.8,2.43,111,3659,3894
1996-09-06,194160,48,4045.00,1,"POPLATEK MESICNE",Hodonin,"south Moravia",161954,21,37,20,3,8,48.0,8720,3.7,4.50,116,3729,3651
1996-08-20,234336,48,4882.00,1,"POPLATEK MESICNE","Hl.m. Praha",Prague,1204953,0,0,0,1,1,100.0,12541,0.2,0.43,167,85677,99107
1993-04-14,47016,12,3918.00,1,"POPLATEK PO OBRATU",Zlin,"south Moravia",197099,29,41,10,2,10,74.7,9624,1.6,2.31,145,4484,4265
1993-09-17,48672,36,1352.00,1,"POPLATEK MESICNE","Hl.m. Praha",Prague,1204953,0,0,0,1,1,100.0,12541,0.2,0.43,167,85677,99107
1995-04-09,74124,36,2059.00,1,"POPLATEK TYDNE",Pribram,"central Bohemia",107870,84,29,6,1,6,58.0,8754,3.8,4.31,137,3804,3868
1997-09-11,49488,24,2062.00,1,"POPLATEK MESICNE","Novy Jicin","north Moravia",161227,5,35,11,4,10,69.7,8678,5.9,5.57,102,4980,4595
1996-12-07,203940,60,3399.00,1,"POPLATEK MESICNE","Hl.m. Praha",Prague,1204953,0,0,0,1,1,100.0,12541,0.2,0.43,167,85677,99107
1997-06-12,99744,24,4156.00,1,"POPLATEK TYDNE",Melnik,"central Bohemia",94725,38,28,1,3,6,63.4,9920,2.2,2.87,130,4289,4846
1996-07-02,49872,12,4156.00,1,"POPLATEK PO OBRATU",Vsetin,"north Moravia",148545,8,35,12,3,4,53.5,8909,4.0,5.56,113,3460,3590
1995-06-19,155640,24,6485.00,1,"POPLATEK MESICNE",Kolin,"central Bohemia",95616,65,30,4,1,6,51.4,9307,3.8,4.43,118,2616,3040
1993-09-06,63360,60,1056.00,1,"POPLATEK MESICNE",Semily,"east Bohemia",75685,31,28,5,1,9,60.8,8208,1.8,2.26,155,1660,2123
1996-04-23,152160,60,2536.00,1,"POPLATEK MESICNE",Pelhrimov,"south Bohemia",74062,99,15,4,2,7,61.4,8114,2.3,2.62,119,1003,1181
1996-08-30,73260,60,1221.00,1,"POPLATEK MESICNE",Karvina,"north Moravia",285387,0,2,8,5,7,89.9,10177,6.6,7.75,81,9878,10108
1997-09-28,49044,12,4087.00,1,"POPLATEK MESICNE","Praha - zapad","central Bohemia",75637,35,36,9,0,7,36.5,9622,0.4,0.59,154,3475,3529
1993-02-26,80952,24,3373.00,1,"POPLATEK MESICNE","Hl.m. Praha",Prague,1204953,0,0,0,1,1,100.0,12541,0.2,0.43,167,85677,99107
1995-04-07,30276,12,2523.00,0,"POPLATEK MESICNE",Tabor,"south Bohemia",103347,87,16,7,1,7,67.0,9104,1.5,2.07,123,2299,2354
1996-07-28,30276,12,2523.00,1,"POPLATEK MESICNE","Frydek - Mistek","north Moravia",228848,15,40,18,2,6,57.2,9893,4.0,4.72,96,5623,5887
1997-08-08,110736,48,2307.00,1,"POPLATEK TYDNE",Prachatice,"south Bohemia",51428,50,11,3,1,4,52.7,8402,3.1,3.98,120,999,1099
1993-03-18,55368,24,2307.00,1,"POPLATEK MESICNE",Zlin,"south Moravia",197099,29,41,10,2,10,74.7,9624,1.6,2.31,145,4484,4265
1993-04-19,63312,48,1319.00,1,"POPLATEK MESICNE",Kladno,"central Bohemia",149893,63,29,6,2,6,67.4,9753,4.6,5.05,109,5244,5892
1993-07-28,91200,24,3800.00,1,"POPLATEK MESICNE",Most,"north Bohemia",119895,17,4,3,2,4,89.9,10446,7.3,9.40,90,4947,4743
1994-08-29,288468,36,8013.00,1,"POPLATEK MESICNE",Vyskov,"south Moravia",86513,38,36,5,1,5,50.5,8288,3.7,4.52,110,1562,1460
1996-05-16,590820,60,9847.00,1,"POPLATEK MESICNE","Brno - mesto","south Moravia",387570,0,0,0,1,1,100.0,9897,1.6,1.96,140,18721,18696
1994-09-03,41952,12,3496.00,1,"POPLATEK MESICNE","Hradec Kralove","east Bohemia",161854,73,21,6,1,6,76.3,9425,1.7,2.50,125,4085,3891
1997-05-24,12792,12,1066.00,1,"POPLATEK MESICNE",Breclav,"south Moravia",124605,11,42,14,1,8,46.0,8772,4.6,4.98,126,2854,3158
1995-01-17,309600,48,6450.00,1,"POPLATEK TYDNE",Olomouc,"north Moravia",226122,32,50,7,4,4,62.6,8994,3.8,4.79,110,9672,9208
1996-04-02,153504,48,3198.00,1,"POPLATEK MESICNE",Kromeriz,"south Moravia",108871,41,29,7,2,6,62.1,8444,3.2,3.47,106,2595,2305
1996-02-16,130464,48,2718.00,1,"POPLATEK MESICNE","Jindrichuv Hradec","south Bohemia",93931,74,21,10,1,8,56.9,8427,1.1,1.54,107,1874,1913
1995-03-15,191880,60,3198.00,1,"POPLATEK MESICNE",Tabor,"south Bohemia",103347,87,16,7,1,7,67.0,9104,1.5,2.07,123,2299,2354
1993-09-05,31728,24,1322.00,1,"POPLATEK MESICNE","Hl.m. Praha",Prague,1204953,0,0,0,1,1,100.0,12541,0.2,0.43,167,85677,99107
1995-02-08,320592,48,6679.00,1,"POPLATEK MESICNE","Uherske Hradiste","south Moravia",145688,22,41,13,2,5,40.7,8544,1.2,1.86,109,2719,2906
1996-09-22,170448,48,3551.00,1,"POPLATEK MESICNE","Frydek - Mistek","north Moravia",228848,15,40,18,2,6,57.2,9893,4.0,4.72,96,5623,5887
1996-10-08,42384,12,3532.00,1,"POPLATEK MESICNE",Teplice,"north Bohemia",128118,9,16,6,3,8,85.3,9317,6.4,7.07,97,6949,6872
1996-08-19,390096,48,8127.00,1,"POPLATEK MESICNE",Nachod,"east Bohemia",112709,48,20,7,3,10,73.5,8369,1.7,2.31,117,2854,2618
1996-07-21,94488,24,3937.00,1,"POPLATEK MESICNE","Hl.m. Praha",Prague,1204953,0,0,0,1,1,100.0,12541,0.2,0.43,167,85677,99107
1996-05-25,220440,60,3674.00,1,"POPLATEK TYDNE",Svitavy,"east Bohemia",102609,75,33,2,3,6,52.0,8187,4.8,5.45,94,2123,2134
1997-07-03,45456,12,3788.00,1,"POPLATEK MESICNE",Rakovnik,"central Bohemia",53921,61,22,1,1,2,41.3,8598,2.7,3.26,123,1597,1875
1996-07-08,140064,24,5836.00,1,"POPLATEK TYDNE",Prachatice,"south Bohemia",51428,50,11,3,1,4,52.7,8402,3.1,3.98,120,999,1099
1996-11-29,77544,36,2154.00,1,"POPLATEK MESICNE",Benesov,"central Bohemia",88884,80,26,6,2,5,46.7,8507,1.6,1.85,132,2159,2674
1993-02-08,51696,24,2154.00,1,"POPLATEK MESICNE","Ostrava - mesto","north Moravia",323870,0,0,0,1,1,100.0,10673,4.7,5.44,100,18782,18347
1994-07-10,27984,12,2332.00,1,"POPLATEK TYDNE","Usti nad Orlici","east Bohemia",139012,59,41,8,3,10,61.9,8363,2.5,3.49,108,2564,2799
1993-10-03,196080,48,4085.00,1,"POPLATEK MESICNE",Cheb,"west Bohemia",87419,21,11,4,3,9,85.5,8624,1.7,2.66,102,2879,3198
1995-01-05,372120,60,6202.00,1,"POPLATEK MESICNE",Zlin,"south Moravia",197099,29,41,10,2,10,74.7,9624,1.6,2.31,145,4484,4265
1995-04-09,189696,24,7904.00,1,"POPLATEK TYDNE",Prachatice,"south Bohemia",51428,50,11,3,1,4,52.7,8402,3.1,3.98,120,999,1099
1993-08-01,20832,48,434.00,1,"POPLATEK MESICNE",Louny,"north Bohemia",85852,41,23,4,2,4,59.8,8965,7.0,8.23,104,2653,2822
1994-05-17,189696,24,7904.00,0,"POPLATEK MESICNE",Prostejov,"south Moravia",110643,49,41,4,1,4,51.9,8441,3.4,4.48,115,1879,2252
1993-11-26,91584,24,3816.00,1,"POPLATEK MESICNE","Hl.m. Praha",Prague,1204953,0,0,0,1,1,100.0,12541,0.2,0.43,167,85677,99107
1993-08-04,68112,12,5676.00,1,"POPLATEK MESICNE",Prerov,"north Moravia",138032,67,30,4,2,5,64.6,8819,5.3,5.66,99,4063,4505
1995-03-14,72120,12,6010.00,1,"POPLATEK MESICNE","Usti nad Orlici","east Bohemia",139012,59,41,8,3,10,61.9,8363,2.5,3.49,108,2564,2799
1995-04-22,21852,36,607.00,1,"POPLATEK MESICNE",Chomutov,"north Bohemia",125236,28,11,1,4,5,87.7,9675,6.4,7.68,100,5323,5190
1996-03-26,79344,48,1653.00,1,"POPLATEK MESICNE",Cheb,"west Bohemia",87419,21,11,4,3,9,85.5,8624,1.7,2.66,102,2879,3198
1996-04-09,153144,36,4254.00,1,"POPLATEK MESICNE","Plzen - jih","west Bohemia",67298,71,19,10,0,7,43.8,8561,0.6,1.29,110,1029,1127
1996-07-27,97392,12,8116.00,1,"POPLATEK MESICNE",Karvina,"north Moravia",285387,0,2,8,5,7,89.9,10177,6.6,7.75,81,9878,10108
1996-06-09,84120,24,3505.00,1,"POPLATEK TYDNE",Jesenik,"north Moravia",42821,4,13,5,1,3,48.4,8173,NULL,7.01,124,NULL,1358
1995-09-07,42900,12,3575.00,1,"POPLATEK MESICNE",Trutnov,"east Bohemia",121947,37,28,7,3,11,70.5,8541,2.5,2.97,131,3496,3839
1993-11-08,71460,12,5955.00,1,"POPLATEK MESICNE","Brno - venkov","south Moravia",157042,49,70,18,0,9,33.9,8743,1.8,2.43,111,3659,3894
1996-12-27,473280,60,7888.00,0,"POPLATEK MESICNE","Brno - mesto","south Moravia",387570,0,0,0,1,1,100.0,9897,1.6,1.96,140,18721,18696
1996-08-30,144960,48,3020.00,1,"POPLATEK MESICNE",Nymburk,"central Bohemia",81344,61,23,4,2,6,55.3,8899,3.3,3.97,149,2987,2487
1996-04-25,160656,24,6694.00,1,"POPLATEK MESICNE","Praha - vychod","central Bohemia",92084,55,29,4,3,5,46.7,10124,0.5,0.54,141,3810,4316
1997-03-23,128268,36,3563.00,1,"POPLATEK MESICNE",Liberec,"north Bohemia",159617,29,19,8,1,9,85.2,9198,3.3,4.28,131,5796,6132
1993-07-07,77640,12,6470.00,1,"POPLATEK TYDNE",Chrudim,"east Bohemia",105606,77,26,7,2,7,53.0,8254,2.7,3.76,97,2166,2325
1996-08-17,35856,24,1494.00,1,"POPLATEK MESICNE",Pardubice,"east Bohemia",162580,83,26,5,1,6,72.8,9538,1.5,1.81,111,6079,5410
1995-12-17,93600,24,3900.00,1,"POPLATEK MESICNE",Nymburk,"central Bohemia",81344,61,23,4,2,6,55.3,8899,3.3,3.97,149,2987,2487
1993-10-10,140400,36,3900.00,1,"POPLATEK MESICNE","Hl.m. Praha",Prague,1204953,0,0,0,1,1,100.0,12541,0.2,0.43,167,85677,99107
1993-02-07,208320,48,4340.00,1,"POPLATEK TYDNE","Hl.m. Praha",Prague,1204953,0,0,0,1,1,100.0,12541,0.2,0.43,167,85677,99107
1993-09-03,49320,12,4110.00,0,"POPLATEK PO OBRATU","Karlovy Vary","west Bohemia",122603,25,21,6,2,8,80.0,8991,1.3,2.01,128,5198,5273
1996-04-08,260400,60,4340.00,0,"POPLATEK MESICNE",Opava,"north Moravia",182027,17,49,12,2,7,56.4,8746,3.3,3.74,90,4355,4433
1995-01-11,56100,60,935.00,1,"POPLATEK MESICNE","Brno - mesto","south Moravia",387570,0,0,0,1,1,100.0,9897,1.6,1.96,140,18721,18696
1996-11-24,220428,36,6123.00,1,"POPLATEK MESICNE",Bruntal,"north Moravia",106054,38,25,6,2,6,63.1,8110,5.7,6.55,109,3244,3079
1995-10-14,99300,60,1655.00,1,"POPLATEK MESICNE",Kromeriz,"south Moravia",108871,41,29,7,2,6,62.1,8444,3.2,3.47,106,2595,2305
1994-10-13,155880,24,6495.00,1,"POPLATEK MESICNE",Litomerice,"north Bohemia",114006,71,26,6,2,9,62.3,9065,4.4,5.39,123,4147,4166
1993-06-26,74736,36,2076.00,1,"POPLATEK MESICNE",Jicin,"east Bohemia",77917,85,19,6,1,5,53.5,8390,2.2,2.89,132,2080,2122
1996-06-16,238716,36,6631.00,1,"POPLATEK TYDNE","Rychnov nad Kneznou","east Bohemia",78955,50,24,8,1,9,59.0,9060,1.7,2.44,124,1655,1717
1995-02-08,29784,24,1241.00,1,"POPLATEK MESICNE","Plzen - mesto","west Bohemia",170449,0,0,0,1,1,100.0,10787,2.6,3.09,131,6041,6261
1995-11-28,97980,60,1633.00,1,"POPLATEK MESICNE",Rokycany,"west Bohemia",45714,52,10,5,1,6,55.6,8843,2.8,3.60,113,818,888
1993-07-05,80340,12,6695.00,1,"POPLATEK MESICNE","Praha - zapad","central Bohemia",75637,35,36,9,0,7,36.5,9622,0.4,0.59,154,3475,3529
1996-12-07,36204,12,3017.00,0,"POPLATEK MESICNE",Svitavy,"east Bohemia",102609,75,33,2,3,6,52.0,8187,4.8,5.45,94,2123,2134
1993-03-24,224604,36,6239.00,1,"POPLATEK MESICNE",Tachov,"west Bohemia",51313,34,12,3,1,4,59.2,8930,3.5,4.20,108,1328,1452
1993-05-12,87840,24,3660.00,1,"POPLATEK MESICNE",Rakovnik,"central Bohemia",53921,61,22,1,1,2,41.3,8598,2.7,3.26,123,1597,1875
1996-09-19,8616,24,359.00,1,"POPLATEK MESICNE",Kromeriz,"south Moravia",108871,41,29,7,2,6,62.1,8444,3.2,3.47,106,2595,2305
1994-06-04,134784,24,5616.00,1,"POPLATEK MESICNE",Karvina,"north Moravia",285387,0,2,8,5,7,89.9,10177,6.6,7.75,81,9878,10108
1997-01-19,309660,60,5161.00,1,"POPLATEK MESICNE",Trutnov,"east Bohemia",121947,37,28,7,3,11,70.5,8541,2.5,2.97,131,3496,3839
1993-04-12,89040,60,1484.00,1,"POPLATEK MESICNE",Vsetin,"north Moravia",148545,8,35,12,3,4,53.5,8909,4.0,5.56,113,3460,3590
1995-08-08,247728,48,5161.00,1,"POPLATEK TYDNE","Hl.m. Praha",Prague,1204953,0,0,0,1,1,100.0,12541,0.2,0.43,167,85677,99107
1993-03-28,7656,24,319.00,1,"POPLATEK MESICNE","Rychnov nad Kneznou","east Bohemia",78955,50,24,8,1,9,59.0,9060,1.7,2.44,124,1655,1717
1993-11-20,417060,60,6951.00,1,"POPLATEK MESICNE",Rokycany,"west Bohemia",45714,52,10,5,1,6,55.6,8843,2.8,3.60,113,818,888
1996-09-17,333648,48,6951.00,0,"POPLATEK MESICNE","Ceske Budejovice","south Bohemia",177686,69,27,10,1,9,74.8,10045,1.4,1.71,135,6604,6295
1994-05-10,266220,60,4437.00,1,"POPLATEK MESICNE",Strakonice,"south Bohemia",70646,94,14,3,1,4,58.4,8547,2.6,3.64,120,1563,1542
1994-12-02,220620,60,3677.00,1,"POPLATEK MESICNE",Strakonice,"south Bohemia",70646,94,14,3,1,4,58.4,8547,2.6,3.64,120,1563,1542
1993-09-08,21072,24,878.00,1,"POPLATEK MESICNE",Kladno,"central Bohemia",149893,63,29,6,2,6,67.4,9753,4.6,5.05,109,5244,5892
1993-09-18,265320,36,7370.00,1,"POPLATEK MESICNE",Prachatice,"south Bohemia",51428,50,11,3,1,4,52.7,8402,3.1,3.98,120,999,1099
1994-06-29,85860,60,1431.00,1,"POPLATEK MESICNE",Benesov,"central Bohemia",88884,80,26,6,2,5,46.7,8507,1.6,1.85,132,2159,2674
1997-03-20,42840,12,3570.00,1,"POPLATEK MESICNE",Karvina,"north Moravia",285387,0,2,8,5,7,89.9,10177,6.6,7.75,81,9878,10108
1993-04-02,74688,12,6224.00,1,"POPLATEK MESICNE",Cheb,"west Bohemia",87419,21,11,4,3,9,85.5,8624,1.7,2.66,102,2879,3198
1996-11-25,93036,12,7753.00,1,"POPLATEK MESICNE","Brno - mesto","south Moravia",387570,0,0,0,1,1,100.0,9897,1.6,1.96,140,18721,18696
1995-10-10,174048,48,3626.00,1,"POPLATEK MESICNE",Pardubice,"east Bohemia",162580,83,26,5,1,6,72.8,9538,1.5,1.81,111,6079,5410
1995-07-17,173016,36,4806.00,1,"POPLATEK TYDNE","Ceske Budejovice","south Bohemia",177686,69,27,10,1,9,74.8,10045,1.4,1.71,135,6604,6295
1994-02-27,288360,60,4806.00,1,"POPLATEK PO OBRATU","Hl.m. Praha",Prague,1204953,0,0,0,1,1,100.0,12541,0.2,0.43,167,85677,99107
1993-09-12,76680,24,3195.00,1,"POPLATEK MESICNE","Frydek - Mistek","north Moravia",228848,15,40,18,2,6,57.2,9893,4.0,4.72,96,5623,5887
1993-10-08,230220,36,6395.00,0,"POPLATEK MESICNE","Ostrava - mesto","north Moravia",323870,0,0,0,1,1,100.0,10673,4.7,5.44,100,18782,18347
1993-11-10,47304,24,1971.00,1,"POPLATEK MESICNE",Zlin,"south Moravia",197099,29,41,10,2,10,74.7,9624,1.6,2.31,145,4484,4265
1997-08-22,185640,60,3094.00,1,"POPLATEK MESICNE",Nachod,"east Bohemia",112709,48,20,7,3,10,73.5,8369,1.7,2.31,117,2854,2618
1997-06-23,240900,60,4015.00,1,"POPLATEK MESICNE",Prostejov,"south Moravia",110643,49,41,4,1,4,51.9,8441,3.4,4.48,115,1879,2252
1996-02-12,85716,36,2381.00,1,"POPLATEK MESICNE",Pelhrimov,"south Bohemia",74062,99,15,4,2,7,61.4,8114,2.3,2.62,119,1003,1181
1996-11-22,67980,12,5665.00,1,"POPLATEK MESICNE","Zdar nad Sazavou","south Moravia",125832,151,41,2,3,5,48.3,8512,3.5,4.12,102,2247,2103
1997-05-18,170700,60,2845.00,1,"POPLATEK MESICNE",Blansko,"south Moravia",107911,88,33,6,2,7,50.9,8240,2.5,3.56,99,1850,1903
1997-01-28,33144,12,2762.00,1,"POPLATEK MESICNE",Karvina,"north Moravia",285387,0,2,8,5,7,89.9,10177,6.6,7.75,81,9878,10108
1996-05-16,88272,48,1839.00,1,"POPLATEK MESICNE","Hl.m. Praha",Prague,1204953,0,0,0,1,1,100.0,12541,0.2,0.43,167,85677,99107
1994-08-24,33984,48,708.00,1,"POPLATEK MESICNE",Zlin,"south Moravia",197099,29,41,10,2,10,74.7,9624,1.6,2.31,145,4484,4265
1996-10-16,74352,24,3098.00,1,"POPLATEK MESICNE","Hl.m. Praha",Prague,1204953,0,0,0,1,1,100.0,12541,0.2,0.43,167,85677,99107
1994-09-05,125340,60,2089.00,1,"POPLATEK TYDNE","Hl.m. Praha",Prague,1204953,0,0,0,1,1,100.0,12541,0.2,0.43,167,85677,99107
1997-07-03,76104,24,3171.00,1,"POPLATEK MESICNE","Uherske Hradiste","south Moravia",145688,22,41,13,2,5,40.7,8544,1.2,1.86,109,2719,2906
1997-03-21,566640,60,9444.00,1,"POPLATEK MESICNE","Hl.m. Praha",Prague,1204953,0,0,0,1,1,100.0,12541,0.2,0.43,167,85677,99107
1996-01-01,186300,60,3105.00,1,"POPLATEK TYDNE",Vyskov,"south Moravia",86513,38,36,5,1,5,50.5,8288,3.7,4.52,110,1562,1460
1996-05-21,45024,48,938.00,1,"POPLATEK MESICNE",Karvina,"north Moravia",285387,0,2,8,5,7,89.9,10177,6.6,7.75,81,9878,10108
1993-09-25,227880,36,6330.00,1,"POPLATEK MESICNE",Zlin,"south Moravia",197099,29,41,10,2,10,74.7,9624,1.6,2.31,145,4484,4265
1994-09-02,186384,48,3883.00,1,"POPLATEK TYDNE",Teplice,"north Bohemia",128118,9,16,6,3,8,85.3,9317,6.4,7.07,97,6949,6872
1995-11-22,100224,48,2088.00,0,"POPLATEK MESICNE",Karvina,"north Moravia",285387,0,2,8,5,7,89.9,10177,6.6,7.75,81,9878,10108
1996-01-05,70656,48,1472.00,1,"POPLATEK MESICNE","Hl.m. Praha",Prague,1204953,0,0,0,1,1,100.0,12541,0.2,0.43,167,85677,99107
1995-01-21,155616,48,3242.00,1,"POPLATEK MESICNE",Olomouc,"north Moravia",226122,32,50,7,4,4,62.6,8994,3.8,4.79,110,9672,9208
1997-01-15,50112,24,2088.00,1,"POPLATEK MESICNE",Pardubice,"east Bohemia",162580,83,26,5,1,6,72.8,9538,1.5,1.81,111,6079,5410
1993-06-28,38148,12,3179.00,1,"POPLATEK MESICNE","Hl.m. Praha",Prague,1204953,0,0,0,1,1,100.0,12541,0.2,0.43,167,85677,99107
1996-10-22,321936,48,6707.00,1,"POPLATEK MESICNE","Hl.m. Praha",Prague,1204953,0,0,0,1,1,100.0,12541,0.2,0.43,167,85677,99107
1995-08-30,71976,24,2999.00,0,"POPLATEK PO OBRATU","Hradec Kralove","east Bohemia",161854,73,21,6,1,6,76.3,9425,1.7,2.50,125,4085,3891
1993-06-16,189300,60,3155.00,1,"POPLATEK MESICNE",Pardubice,"east Bohemia",162580,83,26,5,1,6,72.8,9538,1.5,1.81,111,6079,5410
1994-01-21,172080,48,3585.00,1,"POPLATEK MESICNE","Praha - vychod","central Bohemia",92084,55,29,4,3,5,46.7,10124,0.5,0.54,141,3810,4316
1996-07-18,272220,60,4537.00,0,"POPLATEK MESICNE","Plzen - mesto","west Bohemia",170449,0,0,0,1,1,100.0,10787,2.6,3.09,131,6041,6261
1997-08-18,16032,48,334.00,1,"POPLATEK MESICNE","Ceska Lipa","north Bohemia",105058,32,19,7,2,10,81.0,9272,2.8,3.22,118,4340,4505
1996-12-12,52236,36,1451.00,1,"POPLATEK MESICNE",Nymburk,"central Bohemia",81344,61,23,4,2,6,55.3,8899,3.3,3.97,149,2987,2487
1997-09-14,163332,36,4537.00,1,"POPLATEK MESICNE",Pisek,"south Bohemia",70699,60,13,2,1,4,65.3,8968,2.8,3.35,131,1740,1910
1996-08-02,69600,48,1450.00,1,"POPLATEK MESICNE",Zlin,"south Moravia",197099,29,41,10,2,10,74.7,9624,1.6,2.31,145,4484,4265
1997-04-02,272220,60,4537.00,1,"POPLATEK MESICNE",Breclav,"south Moravia",124605,11,42,14,1,8,46.0,8772,4.6,4.98,126,2854,3158
1997-01-21,215040,60,3584.00,1,"POPLATEK MESICNE","Plzen - sever","west Bohemia",72541,66,26,10,0,8,36.9,8594,1.6,2.01,112,1580,1525
1993-02-08,127080,60,2118.00,1,"POPLATEK MESICNE",Jicin,"east Bohemia",77917,85,19,6,1,5,53.5,8390,2.2,2.89,132,2080,2122
1996-05-15,29448,12,2454.00,0,"POPLATEK MESICNE",Olomouc,"north Moravia",226122,32,50,7,4,4,62.6,8994,3.8,4.79,110,9672,9208
1996-10-28,122472,24,5103.00,1,"POPLATEK MESICNE",Jesenik,"north Moravia",42821,4,13,5,1,3,48.4,8173,NULL,7.01,124,NULL,1358
1997-05-24,82128,24,3422.00,1,"POPLATEK MESICNE",Rokycany,"west Bohemia",45714,52,10,5,1,6,55.6,8843,2.8,3.60,113,818,888
1996-01-01,164256,48,3422.00,1,"POPLATEK MESICNE","Praha - zapad","central Bohemia",75637,35,36,9,0,7,36.5,9622,0.4,0.59,154,3475,3529
1997-11-04,191580,60,3193.00,1,"POPLATEK MESICNE",Trutnov,"east Bohemia",121947,37,28,7,3,11,70.5,8541,2.5,2.97,131,3496,3839
1995-06-24,83280,48,1735.00,1,"POPLATEK MESICNE",Litomerice,"north Bohemia",114006,71,26,6,2,9,62.3,9065,4.4,5.39,123,4147,4166
1993-08-18,86616,12,7218.00,1,"POPLATEK MESICNE","Praha - zapad","central Bohemia",75637,35,36,9,0,7,36.5,9622,0.4,0.59,154,3475,3529
1996-09-25,285240,60,4754.00,1,"POPLATEK MESICNE","Ostrava - mesto","north Moravia",323870,0,0,0,1,1,100.0,10673,4.7,5.44,100,18782,18347
1996-03-15,23184,12,1932.00,1,"POPLATEK MESICNE",Hodonin,"south Moravia",161954,21,37,20,3,8,48.0,8720,3.7,4.50,116,3729,3651
1996-06-04,39576,12,3298.00,1,"POPLATEK MESICNE","Frydek - Mistek","north Moravia",228848,15,40,18,2,6,57.2,9893,4.0,4.72,96,5623,5887
1993-02-04,39576,12,3298.00,1,"POPLATEK MESICNE","Hl.m. Praha",Prague,1204953,0,0,0,1,1,100.0,12541,0.2,0.43,167,85677,99107
1993-01-24,41904,12,3492.00,1,"POPLATEK MESICNE","Frydek - Mistek","north Moravia",228848,15,40,18,2,6,57.2,9893,4.0,4.72,96,5623,5887
1993-09-13,52128,24,2172.00,1,"POPLATEK MESICNE",Sokolov,"west Bohemia",94812,15,13,8,2,10,81.8,9650,3.3,3.67,100,2985,2804
1995-11-03,188616,24,7859.00,1,"POPLATEK MESICNE",Kromeriz,"south Moravia",108871,41,29,7,2,6,62.1,8444,3.2,3.47,106,2595,2305
1995-09-17,99936,24,4164.00,1,"POPLATEK MESICNE","Hl.m. Praha",Prague,1204953,0,0,0,1,1,100.0,12541,0.2,0.43,167,85677,99107
1993-03-27,120888,36,3358.00,1,"POPLATEK TYDNE","Hl.m. Praha",Prague,1204953,0,0,0,1,1,100.0,12541,0.2,0.43,167,85677,99107
1996-03-06,86184,12,7182.00,1,"POPLATEK MESICNE",Karvina,"north Moravia",285387,0,2,8,5,7,89.9,10177,6.6,7.75,81,9878,10108
1996-12-30,83628,36,2323.00,1,"POPLATEK MESICNE","Brno - mesto","south Moravia",387570,0,0,0,1,1,100.0,9897,1.6,1.96,140,18721,18696
1997-08-14,44640,24,1860.00,1,"POPLATEK MESICNE",Kromeriz,"south Moravia",108871,41,29,7,2,6,62.1,8444,3.2,3.47,106,2595,2305
1996-11-03,374760,60,6246.00,1,"POPLATEK MESICNE",Opava,"north Moravia",182027,17,49,12,2,7,56.4,8746,3.3,3.74,90,4355,4433
1993-07-06,36396,12,3033.00,1,"POPLATEK TYDNE","Hl.m. Praha",Prague,1204953,0,0,0,1,1,100.0,12541,0.2,0.43,167,85677,99107
1996-08-08,225504,48,4698.00,1,"POPLATEK TYDNE",Melnik,"central Bohemia",94725,38,28,1,3,6,63.4,9920,2.2,2.87,130,4289,4846
1995-04-02,188688,48,3931.00,1,"POPLATEK MESICNE",Zlin,"south Moravia",197099,29,41,10,2,10,74.7,9624,1.6,2.31,145,4484,4265
1996-05-10,116832,12,9736.00,1,"POPLATEK MESICNE",Tabor,"south Bohemia",103347,87,16,7,1,7,67.0,9104,1.5,2.07,123,2299,2354
1996-01-29,341280,60,5688.00,1,"POPLATEK MESICNE",Nymburk,"central Bohemia",81344,61,23,4,2,6,55.3,8899,3.3,3.97,149,2987,2487
1996-06-09,228276,36,6341.00,1,"POPLATEK MESICNE","Hl.m. Praha",Prague,1204953,0,0,0,1,1,100.0,12541,0.2,0.43,167,85677,99107
1996-05-12,18324,12,1527.00,1,"POPLATEK MESICNE",Kromeriz,"south Moravia",108871,41,29,7,2,6,62.1,8444,3.2,3.47,106,2595,2305
1996-06-07,46176,48,962.00,1,"POPLATEK MESICNE","Uherske Hradiste","south Moravia",145688,22,41,13,2,5,40.7,8544,1.2,1.86,109,2719,2906
1997-07-13,157068,36,4363.00,1,"POPLATEK MESICNE","Hl.m. Praha",Prague,1204953,0,0,0,1,1,100.0,12541,0.2,0.43,167,85677,99107
1994-05-22,104712,24,4363.00,1,"POPLATEK TYDNE",Tachov,"west Bohemia",51313,34,12,3,1,4,59.2,8930,3.5,4.20,108,1328,1452
1993-05-20,104712,24,4363.00,1,"POPLATEK MESICNE","Ostrava - mesto","north Moravia",323870,0,0,0,1,1,100.0,10673,4.7,5.44,100,18782,18347
1994-07-22,244368,48,5091.00,1,"POPLATEK PO OBRATU",Znojmo,"south Moravia",114200,101,41,4,1,4,43.7,8403,5.7,5.72,105,2157,2718
1996-06-25,59448,24,2477.00,1,"POPLATEK MESICNE","Praha - zapad","central Bohemia",75637,35,36,9,0,7,36.5,9622,0.4,0.59,154,3475,3529
1996-01-08,59448,24,2477.00,0,"POPLATEK MESICNE",Karvina,"north Moravia",285387,0,2,8,5,7,89.9,10177,6.6,7.75,81,9878,10108
1993-03-13,76416,24,3184.00,1,"POPLATEK MESICNE","Hl.m. Praha",Prague,1204953,0,0,0,1,1,100.0,12541,0.2,0.43,167,85677,99107
1996-01-23,176148,36,4893.00,1,"POPLATEK MESICNE",Louny,"north Bohemia",85852,41,23,4,2,4,59.8,8965,7.0,8.23,104,2653,2822
1996-07-30,279072,48,5814.00,1,"POPLATEK TYDNE","Hl.m. Praha",Prague,1204953,0,0,0,1,1,100.0,12541,0.2,0.43,167,85677,99107
1993-11-14,139536,24,5814.00,1,"POPLATEK MESICNE",Trebic,"south Moravia",117897,139,28,5,1,6,53.8,8814,4.7,5.74,107,2112,2059
1997-06-07,88200,36,2450.00,1,"POPLATEK MESICNE",Sumperk,"north Moravia",127369,31,32,13,2,7,51.2,8369,4.7,5.88,107,3736,2807
1996-10-13,31620,60,527.00,1,"POPLATEK MESICNE","Mlada Boleslav","central Bohemia",112065,95,19,7,1,8,69.4,11277,1.2,1.44,127,5179,4987
1997-01-01,116040,60,1934.00,1,"POPLATEK MESICNE","Brno - mesto","south Moravia",387570,0,0,0,1,1,100.0,9897,1.6,1.96,140,18721,18696
1994-12-01,113796,36,3161.00,1,"POPLATEK PO OBRATU","Brno - mesto","south Moravia",387570,0,0,0,1,1,100.0,9897,1.6,1.96,140,18721,18696
1994-05-16,151728,48,3161.00,0,"POPLATEK MESICNE","Ostrava - mesto","north Moravia",323870,0,0,0,1,1,100.0,10673,4.7,5.44,100,18782,18347
1995-11-09,133968,48,2791.00,1,"POPLATEK MESICNE","Usti nad Orlici","east Bohemia",139012,59,41,8,3,10,61.9,8363,2.5,3.49,108,2564,2799
1995-01-19,96168,12,8014.00,1,"POPLATEK TYDNE",Zlin,"south Moravia",197099,29,41,10,2,10,74.7,9624,1.6,2.31,145,4484,4265
1993-05-20,126600,24,5275.00,1,"POPLATEK MESICNE","Praha - zapad","central Bohemia",75637,35,36,9,0,7,36.5,9622,0.4,0.59,154,3475,3529
1993-07-24,97632,12,8136.00,1,"POPLATEK MESICNE",Strakonice,"south Bohemia",70646,94,14,3,1,4,58.4,8547,2.6,3.64,120,1563,1542
1996-07-08,300600,60,5010.00,1,"POPLATEK MESICNE","Plzen - jih","west Bohemia",67298,71,19,10,0,7,43.8,8561,0.6,1.29,110,1029,1127
1993-08-21,331560,60,5526.00,1,"POPLATEK MESICNE",Pribram,"central Bohemia",107870,84,29,6,1,6,58.0,8754,3.8,4.31,137,3804,3868
1995-03-04,36168,12,3014.00,1,"POPLATEK MESICNE","Hl.m. Praha",Prague,1204953,0,0,0,1,1,100.0,12541,0.2,0.43,167,85677,99107
1995-11-09,89340,60,1489.00,1,"POPLATEK MESICNE",Prostejov,"south Moravia",110643,49,41,4,1,4,51.9,8441,3.4,4.48,115,1879,2252
1995-05-28,19044,36,529.00,1,"POPLATEK MESICNE","Karlovy Vary","west Bohemia",122603,25,21,6,2,8,80.0,8991,1.3,2.01,128,5198,5273
1997-11-29,210744,36,5854.00,1,"POPLATEK MESICNE",Zlin,"south Moravia",197099,29,41,10,2,10,74.7,9624,1.6,2.31,145,4484,4265
1995-06-15,194940,36,5415.00,1,"POPLATEK MESICNE","Mlada Boleslav","central Bohemia",112065,95,19,7,1,8,69.4,11277,1.2,1.44,127,5179,4987
1997-05-07,218064,48,4543.00,1,"POPLATEK MESICNE","Hl.m. Praha",Prague,1204953,0,0,0,1,1,100.0,12541,0.2,0.43,167,85677,99107
1996-03-28,91632,12,7636.00,1,"POPLATEK MESICNE",Pelhrimov,"south Bohemia",74062,99,15,4,2,7,61.4,8114,2.3,2.62,119,1003,1181
1996-10-13,233424,36,6484.00,1,"POPLATEK TYDNE",Kladno,"central Bohemia",149893,63,29,6,2,6,67.4,9753,4.6,5.05,109,5244,5892
1996-03-30,311232,48,6484.00,1,"POPLATEK MESICNE",Sumperk,"north Moravia",127369,31,32,13,2,7,51.2,8369,4.7,5.88,107,3736,2807
1997-04-02,77808,12,6484.00,1,"POPLATEK MESICNE","Hl.m. Praha",Prague,1204953,0,0,0,1,1,100.0,12541,0.2,0.43,167,85677,99107
1993-05-06,167100,60,2785.00,1,"POPLATEK MESICNE","Uherske Hradiste","south Moravia",145688,22,41,13,2,5,40.7,8544,1.2,1.86,109,2719,2906
1994-07-01,231696,36,6436.00,1,"POPLATEK TYDNE","Hl.m. Praha",Prague,1204953,0,0,0,1,1,100.0,12541,0.2,0.43,167,85677,99107
1993-04-28,121896,24,5079.00,1,"POPLATEK MESICNE","Brno - venkov","south Moravia",157042,49,70,18,0,9,33.9,8743,1.8,2.43,111,3659,3894
1993-11-27,215388,36,5983.00,0,"POPLATEK MESICNE","Hl.m. Praha",Prague,1204953,0,0,0,1,1,100.0,12541,0.2,0.43,167,85677,99107
1997-04-26,136368,24,5682.00,1,"POPLATEK MESICNE",Domazlice,"west Bohemia",58400,65,16,4,1,6,52.4,8620,1.1,1.25,100,1089,1117
1997-01-13,22104,12,1842.00,1,"POPLATEK MESICNE",Chomutov,"north Bohemia",125236,28,11,1,4,5,87.7,9675,6.4,7.68,100,5323,5190
1996-07-08,305424,48,6363.00,1,"POPLATEK MESICNE",Karvina,"north Moravia",285387,0,2,8,5,7,89.9,10177,6.6,7.75,81,9878,10108
1996-04-12,44304,24,1846.00,1,"POPLATEK MESICNE",Louny,"north Bohemia",85852,41,23,4,2,4,59.8,8965,7.0,8.23,104,2653,2822
1996-02-21,239160,60,3986.00,1,"POPLATEK MESICNE","Plzen - jih","west Bohemia",67298,71,19,10,0,7,43.8,8561,0.6,1.29,110,1029,1127
1997-09-03,113436,36,3151.00,1,"POPLATEK MESICNE",Chrudim,"east Bohemia",105606,77,26,7,2,7,53.0,8254,2.7,3.76,97,2166,2325
1997-05-01,37812,12,3151.00,1,"POPLATEK MESICNE","Plzen - jih","west Bohemia",67298,71,19,10,0,7,43.8,8561,0.6,1.29,110,1029,1127
1993-06-10,75624,24,3151.00,0,"POPLATEK MESICNE","Brno - mesto","south Moravia",387570,0,0,0,1,1,100.0,9897,1.6,1.96,140,18721,18696
1996-12-01,348120,60,5802.00,1,"POPLATEK MESICNE",Jesenik,"north Moravia",42821,4,13,5,1,3,48.4,8173,NULL,7.01,124,NULL,1358
1996-01-19,421008,48,8771.00,1,"POPLATEK MESICNE","Ceske Budejovice","south Bohemia",177686,69,27,10,1,9,74.8,10045,1.4,1.71,135,6604,6295
1993-07-11,259740,60,4329.00,1,"POPLATEK MESICNE","Frydek - Mistek","north Moravia",228848,15,40,18,2,6,57.2,9893,4.0,4.72,96,5623,5887
1996-04-07,31260,12,2605.00,1,"POPLATEK MESICNE",Liberec,"north Bohemia",159617,29,19,8,1,9,85.2,9198,3.3,4.28,131,5796,6132
1995-05-04,88704,48,1848.00,1,"POPLATEK MESICNE",Cheb,"west Bohemia",87419,21,11,4,3,9,85.5,8624,1.7,2.66,102,2879,3198
1996-06-21,86880,12,7240.00,1,"POPLATEK MESICNE",Tabor,"south Bohemia",103347,87,16,7,1,7,67.0,9104,1.5,2.07,123,2299,2354
1993-01-17,21924,36,609.00,1,"POPLATEK MESICNE","Brno - venkov","south Moravia",157042,49,70,18,0,9,33.9,8743,1.8,2.43,111,3659,3894
1995-09-02,260640,36,7240.00,0,"POPLATEK MESICNE",Domazlice,"west Bohemia",58400,65,16,4,1,6,52.4,8620,1.1,1.25,100,1089,1117
1996-12-30,194280,60,3238.00,1,"POPLATEK MESICNE","Hl.m. Praha",Prague,1204953,0,0,0,1,1,100.0,12541,0.2,0.43,167,85677,99107
1995-11-23,123408,24,5142.00,1,"POPLATEK PO OBRATU",Most,"north Bohemia",119895,17,4,3,2,4,89.9,10446,7.3,9.40,90,4947,4743
1996-03-21,54396,36,1511.00,1,"POPLATEK MESICNE",Prostejov,"south Moravia",110643,49,41,4,1,4,51.9,8441,3.4,4.48,115,1879,2252
1993-11-21,151560,24,6315.00,1,"POPLATEK MESICNE","Zdar nad Sazavou","south Moravia",125832,151,41,2,3,5,48.3,8512,3.5,4.12,102,2247,2103
1993-09-13,60000,60,1000.00,1,"POPLATEK MESICNE",Olomouc,"north Moravia",226122,32,50,7,4,4,62.6,8994,3.8,4.79,110,9672,9208
1996-05-29,23412,12,1951.00,1,"POPLATEK MESICNE",Olomouc,"north Moravia",226122,32,50,7,4,4,62.6,8994,3.8,4.79,110,9672,9208
1993-08-29,482940,60,8049.00,0,"POPLATEK MESICNE","Hl.m. Praha",Prague,1204953,0,0,0,1,1,100.0,12541,0.2,0.43,167,85677,99107
1996-02-24,267600,48,5575.00,1,"POPLATEK TYDNE",Karvina,"north Moravia",285387,0,2,8,5,7,89.9,10177,6.6,7.75,81,9878,10108
1997-01-09,133800,24,5575.00,1,"POPLATEK MESICNE",Pribram,"central Bohemia",107870,84,29,6,1,6,58.0,8754,3.8,4.31,137,3804,3868
1995-10-24,417600,60,6960.00,1,"POPLATEK PO OBRATU","Brno - venkov","south Moravia",157042,49,70,18,0,9,33.9,8743,1.8,2.43,111,3659,3894
1997-11-04,249792,48,5204.00,1,"POPLATEK MESICNE","Brno - venkov","south Moravia",157042,49,70,18,0,9,33.9,8743,1.8,2.43,111,3659,3894
1995-01-15,198240,24,8260.00,1,"POPLATEK MESICNE","Usti nad Labem","north Bohemia",118650,8,8,5,1,3,85.6,9832,3.3,4.48,114,6445,5471
1997-07-12,269964,36,7499.00,1,"POPLATEK MESICNE","Jindrichuv Hradec","south Bohemia",93931,74,21,10,1,8,56.9,8427,1.1,1.54,107,1874,1913
1996-12-21,208332,36,5787.00,1,"POPLATEK MESICNE",Benesov,"central Bohemia",88884,80,26,6,2,5,46.7,8507,1.6,1.85,132,2159,2674
1997-09-09,196224,48,4088.00,1,"POPLATEK MESICNE",Sumperk,"north Moravia",127369,31,32,13,2,7,51.2,8369,4.7,5.88,107,3736,2807
1997-03-18,45720,12,3810.00,1,"POPLATEK MESICNE","Hl.m. Praha",Prague,1204953,0,0,0,1,1,100.0,12541,0.2,0.43,167,85677,99107
1993-12-08,260028,36,7223.00,1,"POPLATEK MESICNE","Praha - zapad","central Bohemia",75637,35,36,9,0,7,36.5,9622,0.4,0.59,154,3475,3529
1997-05-30,197808,24,8242.00,1,"POPLATEK MESICNE","Hl.m. Praha",Prague,1204953,0,0,0,1,1,100.0,12541,0.2,0.43,167,85677,99107
1996-07-08,24180,60,403.00,1,"POPLATEK MESICNE",Liberec,"north Bohemia",159617,29,19,8,1,9,85.2,9198,3.3,4.28,131,5796,6132
1994-12-23,154656,48,3222.00,1,"POPLATEK MESICNE","Novy Jicin","north Moravia",161227,5,35,11,4,10,69.7,8678,5.9,5.57,102,4980,4595
1993-04-17,115992,36,3222.00,1,"POPLATEK TYDNE",Jicin,"east Bohemia",77917,85,19,6,1,5,53.5,8390,2.2,2.89,132,2080,2122
1995-10-23,68832,36,1912.00,1,"POPLATEK MESICNE","Hl.m. Praha",Prague,1204953,0,0,0,1,1,100.0,12541,0.2,0.43,167,85677,99107
1997-07-05,339168,48,7066.00,1,"POPLATEK MESICNE",Nachod,"east Bohemia",112709,48,20,7,3,10,73.5,8369,1.7,2.31,117,2854,2618
1993-11-22,45768,12,3814.00,1,"POPLATEK TYDNE",Bruntal,"north Moravia",106054,38,25,6,2,6,63.1,8110,5.7,6.55,109,3244,3079
1996-09-18,45768,12,3814.00,1,"POPLATEK MESICNE",Prerov,"north Moravia",138032,67,30,4,2,5,64.6,8819,5.3,5.66,99,4063,4505
1997-08-19,31140,60,519.00,1,"POPLATEK MESICNE",Sumperk,"north Moravia",127369,31,32,13,2,7,51.2,8369,4.7,5.88,107,3736,2807
1996-03-13,67464,12,5622.00,1,"POPLATEK MESICNE",Chomutov,"north Bohemia",125236,28,11,1,4,5,87.7,9675,6.4,7.68,100,5323,5190
1997-04-08,140688,48,2931.00,1,"POPLATEK MESICNE","Jindrichuv Hradec","south Bohemia",93931,74,21,10,1,8,56.9,8427,1.1,1.54,107,1874,1913
1996-10-02,385560,60,6426.00,0,"POPLATEK MESICNE",Svitavy,"east Bohemia",102609,75,33,2,3,6,52.0,8187,4.8,5.45,94,2123,2134
1995-02-20,113544,36,3154.00,1,"POPLATEK MESICNE",Znojmo,"south Moravia",114200,101,41,4,1,4,43.7,8403,5.7,5.72,105,2157,2718
1996-11-21,57120,48,1190.00,1,"POPLATEK MESICNE","Ceska Lipa","north Bohemia",105058,32,19,7,2,10,81.0,9272,2.8,3.22,118,4340,4505
1993-05-29,131292,36,3647.00,1,"POPLATEK TYDNE","Hl.m. Praha",Prague,1204953,0,0,0,1,1,100.0,12541,0.2,0.43,167,85677,99107
1997-02-15,152460,60,2541.00,1,"POPLATEK TYDNE",Klatovy,"west Bohemia",88757,60,33,3,2,10,61.7,8554,2.4,2.68,113,1822,2218
1993-09-13,197748,36,5493.00,1,"POPLATEK MESICNE",Svitavy,"east Bohemia",102609,75,33,2,3,6,52.0,8187,4.8,5.45,94,2123,2134
1994-06-05,314520,60,5242.00,1,"POPLATEK TYDNE",Chrudim,"east Bohemia",105606,77,26,7,2,7,53.0,8254,2.7,3.76,97,2166,2325
1996-07-29,18720,60,312.00,1,"POPLATEK MESICNE",Klatovy,"west Bohemia",88757,60,33,3,2,10,61.7,8554,2.4,2.68,113,1822,2218
1995-05-20,115812,36,3217.00,1,"POPLATEK MESICNE","Jindrichuv Hradec","south Bohemia",93931,74,21,10,1,8,56.9,8427,1.1,1.54,107,1874,1913
1993-04-20,154416,48,3217.00,1,"POPLATEK TYDNE",Pisek,"south Bohemia",70699,60,13,2,1,4,65.3,8968,2.8,3.35,131,1740,1910
1993-02-14,274740,60,4579.00,1,"POPLATEK TYDNE","Hl.m. Praha",Prague,1204953,0,0,0,1,1,100.0,12541,0.2,0.43,167,85677,99107
1993-08-10,168984,24,7041.00,0,"POPLATEK MESICNE","Hl.m. Praha",Prague,1204953,0,0,0,1,1,100.0,12541,0.2,0.43,167,85677,99107
1996-07-26,48096,24,2004.00,1,"POPLATEK TYDNE","Ceska Lipa","north Bohemia",105058,32,19,7,2,10,81.0,9272,2.8,3.22,118,4340,4505
1995-01-29,217152,36,6032.00,1,"POPLATEK MESICNE",Olomouc,"north Moravia",226122,32,50,7,4,4,62.6,8994,3.8,4.79,110,9672,9208
1996-02-01,148920,60,2482.00,1,"POPLATEK TYDNE",Kromeriz,"south Moravia",108871,41,29,7,2,6,62.1,8444,3.2,3.47,106,2595,2305
1993-03-19,69360,48,1445.00,1,"POPLATEK MESICNE","Praha - zapad","central Bohemia",75637,35,36,9,0,7,36.5,9622,0.4,0.59,154,3475,3529
1995-06-02,119136,48,2482.00,1,"POPLATEK MESICNE",Litomerice,"north Bohemia",114006,71,26,6,2,9,62.3,9065,4.4,5.39,123,4147,4166
1995-11-10,98304,12,8192.00,1,"POPLATEK MESICNE","Jindrichuv Hradec","south Bohemia",93931,74,21,10,1,8,56.9,8427,1.1,1.54,107,1874,1913
1996-12-10,213300,60,3555.00,1,"POPLATEK MESICNE","Plzen - sever","west Bohemia",72541,66,26,10,0,8,36.9,8594,1.6,2.01,112,1580,1525
1993-05-20,108144,36,3004.00,1,"POPLATEK MESICNE","Hl.m. Praha",Prague,1204953,0,0,0,1,1,100.0,12541,0.2,0.43,167,85677,99107
1993-10-10,182628,36,5073.00,1,"POPLATEK MESICNE",Prerov,"north Moravia",138032,67,30,4,2,5,64.6,8819,5.3,5.66,99,4063,4505
1995-08-18,89880,24,3745.00,1,"POPLATEK TYDNE",Karvina,"north Moravia",285387,0,2,8,5,7,89.9,10177,6.6,7.75,81,9878,10108
1997-02-11,44940,12,3745.00,1,"POPLATEK TYDNE","Hl.m. Praha",Prague,1204953,0,0,0,1,1,100.0,12541,0.2,0.43,167,85677,99107
1994-11-24,392460,60,6541.00,1,"POPLATEK MESICNE",Pribram,"central Bohemia",107870,84,29,6,1,6,58.0,8754,3.8,4.31,137,3804,3868
1997-02-05,89280,12,7440.00,1,"POPLATEK MESICNE","Hl.m. Praha",Prague,1204953,0,0,0,1,1,100.0,12541,0.2,0.43,167,85677,99107
1997-01-12,155760,24,6490.00,1,"POPLATEK MESICNE",Decin,"north Bohemia",133777,24,17,7,3,11,84.7,8705,5.7,7.61,116,4650,4859
1993-01-14,52788,12,4399.00,1,"POPLATEK MESICNE","Cesky Krumlov","south Bohemia",58796,22,16,7,1,5,51.9,9045,3.1,3.60,124,1845,1879
1995-09-20,67320,36,1870.00,1,"POPLATEK MESICNE",Kolin,"central Bohemia",95616,65,30,4,1,6,51.4,9307,3.8,4.43,118,2616,3040
1997-07-11,317460,60,5291.00,1,"POPLATEK MESICNE",Svitavy,"east Bohemia",102609,75,33,2,3,6,52.0,8187,4.8,5.45,94,2123,2134
1997-10-15,39168,24,1632.00,1,"POPLATEK MESICNE",Melnik,"central Bohemia",94725,38,28,1,3,6,63.4,9920,2.2,2.87,130,4289,4846
1996-11-05,280440,60,4674.00,1,"POPLATEK MESICNE","Brno - mesto","south Moravia",387570,0,0,0,1,1,100.0,9897,1.6,1.96,140,18721,18696
1995-05-26,419880,60,6998.00,1,"POPLATEK TYDNE","Hl.m. Praha",Prague,1204953,0,0,0,1,1,100.0,12541,0.2,0.43,167,85677,99107
1994-10-01,54024,12,4502.00,1,"POPLATEK MESICNE",Trebic,"south Moravia",117897,139,28,5,1,6,53.8,8814,4.7,5.74,107,2112,2059
1995-10-14,129408,24,5392.00,1,"POPLATEK MESICNE",Bruntal,"north Moravia",106054,38,25,6,2,6,63.1,8110,5.7,6.55,109,3244,3079
